Place,Name,Team,Sex,BodyweightKg,WeightClassKg,BirthDate,Squat1Kg,Squat2Kg,Squat3Kg,Best3SquatKg,Bench1Kg,Bench2Kg,Bench3Kg,Best3BenchKg,Deadlift1Kg,Deadlift2Kg,Deadlift3Kg,Best3DeadliftKg,TotalKg,Event,Equipment,Division
7,Achim Kircher,ACS Darmstadt,M,113.4,120,1968-01-01,105,,,105,170,180,190,190,125,135,142.5,142.5,437.5,SBD,Raw,Open
7,Martin Puchert,ACS Darmstadt,M,71.7,74,1990-10-27,145,155,165,165,105,112.5,-115,112.5,180,200,-212.5,200,477.5,SBD,Raw,Open
7,Axel Hüter,ACS Darmstadt,M,98,105,1971-05-20,150,175,190,190,110,130,140,140,185,210,225,225,555,SBD,Raw,Open
6,Lisa Rupprecht,Aschaffenburg,F,50.9,52,1994-08-28,70,80,-85,80,35,37.5,-40,37.5,95,105,110,110,227.5,SBD,Raw,Open
6,Florian Weik,Aschaffenburg,M,86.9,93,1982-08-03,140,150,160,160,100,105,110,110,160,170,180,180,450,SBD,Raw,Open
6,Gianluca Riemma,Aschaffenburg,M,63.9,66,1994-01-01,150,165,172.5,172.5,90,95,100,100,180,200,-210,200,472.5,SBD,Raw,Open
6,Marius Bender,Aschaffenburg,M,81.5,83,1992-09-06,165,180,185,185,110,115,-120,115,200,217.5,-222.5,217.5,517.5,SBD,Raw,Open
4,James Payog,Heilligenrode,M,79.3,83,1995-10-31,162.5,175,185,185,97.5,-102.5,-102.5,97.5,-200,200,,200,482.5,SBD,Raw,Open
4,Jan Philipp Dienethal,Heilligenrode,M,69.3,74,1993-09-16,125,132.5,140,140,95,102.5,110,110,180,190,200,200,450,SBD,Raw,Open
4,Vincent Schmidtke,Heilligenrode,M,97.6,105,1996-01-10,200,212.5,222.5,222.5,125,130,-135,130,220,237.5,,237.5,590,SBD,Raw,Open
2,Corinna Lindsay,Kraftsport Colonia,F,64.6,72,1994-03-21,100,110,-115,110,70,75,77.5,77.5,125,135,140,140,327.5,SBD,Raw,Open
2,Jan Hendrik Becker,Kraftsport Colonia,M,107.8,120,1983-03-08,195,210,220,220,117.5,122.5,127.5,127.5,225,240,247.5,247.5,595,SBD,Raw,Open
2,Brin Hassan,Kraftsport Colonia,M,132,120+,1988-01-01,250,-280,285,285,160,-175,180,180,250,300,-330,300,765,SBD,Raw,Open
2,Diaa Abou Aischa,Kraftsport Colonia,M,95.4,105,1992-05-13,200,210,215,215,120,130,-135,130,205,225,245,245,590,SBD,Raw,Open
G,Ana Geitner,KSV Renchtal,F,42.6,47,1967-03-07,80,85,-87.5,85,37.5,40,-42.5,40,130,135,-137.5,135,260,SBD,Raw,Open
8,Antonia Fehn,Lohr am Main,F,68.9,72,1999-07-20,82.5,87.5,-92.5,87.5,-42.5,-42.5,-42.5,,125,135,142.5,142.5,230,SBD,Raw,Open
8,Tobias Ils,Lohr am Main,M,114.2,120,1993-08-11,-180,-180,180,180,75,82.5,-90,82.5,190,200,212.5,212.5,475,SBD,Raw,Open
8,Mikey Born,Lohr am Main,M,118.8,120,1992-12-22,200,210,-215,210,150,-162.5,162.5,162.5,220,230,240,240,612.5,SBD,Raw,Open
8,Vakula Bohdan,Lohr am Main,M,102,105,1991-01-10,155,165,167.5,167.5,97.5,105,-107.5,105,-215,220,225,225,497.5,SBD,Raw,Open
5,Jana Etzel,Mannheim,F,71.1,72,1992-05-12,85,90,100,100,-57.5,57.5,60,60,110,117.5,122.5,122.5,282.5,SBD,Raw,Open
5,Verena Fuhrmann,Mannheim,F,69.3,72,1994-12-30,110,115,122.5,122.5,70,75,-77.5,75,120,127.5,135,135,332.5,SBD,Raw,Open
5,Alexander Frank,Mannheim,M,91.4,93,1979-04-19,155,165,170,170,125,-130,130,130,150,-170,-170,150,450,SBD,Raw,Open
5,Alexander Barth,Mannheim,M,122.2,120+,1998-08-03,230,240,250,250,160,170,-175,170,270,280,292.5,292.5,712.5,SBD,Raw,Open
3,Desiree Millmann,PG Wiesbaden,F,62.7,63,1991-07-11,105,115,-120,115,62.5,65,67.5,67.5,105,115,120,120,302.5,SBD,Raw,Open
3,Daniel Christ,PG Wiesbaden,M,77.6,83,1993-02-02,150,-160,160,160,77.5,82.5,87.5,87.5,170,180,190,190,437.5,SBD,Raw,Open
3,Patrick Müller,PG Wiesbaden,M,90.7,93,1993-09-19,175,185,192.5,192.5,110,115,120,120,250,265,275,275,587.5,SBD,Raw,Open
3,Hamdy Khalifa,PG Wiesbaden,M,104.4,105,1999-05-20,180,190,200,200,120,125,130,130,212.5,225,232.5,232.5,562.5,SBD,Raw,Open
1,Hendrik Wobst #1,Tuspo Weende,M,107.6,120,1997-01-06,210,-220,230,230,140,145,,145,210,220,230,230,605,SBD,Raw,Open
1,Ben Conrady,Tuspo Weende,M,91.5,93,1996-07-19,230,240,250,250,160,167.5,175,175,250,262.5,275,275,700,SBD,Raw,Open
1,Nils-Alexander Ahlbrecht,Tuspo Weende,M,95.3,105,1987-12-26,175,185,195,195,110,120,135,135,225,232.5,-245,232.5,562.5,SBD,Raw,Open
1,Eric Runge,Tuspo Weende,M,97.7,105,1995-08-28,152.5,162.5,-172.5,162.5,95,102.5,110,110,160,172.5,185,185,457.5,SBD,Raw,Open
