Place,Name,BirthDate,Sex,Age,Equipment,Division,BodyweightKg,WeightClassKg,Squat1Kg,Squat2Kg,Squat3Kg,Best3SquatKg,Bench1Kg,Bench2Kg,Bench3Kg,Best3BenchKg,Deadlift1Kg,Deadlift2Kg,Deadlift3Kg,Best3DeadliftKg,TotalKg,Event
1,Catherine Cooper,,F,21,Raw,FR-Jr,51.5,52,75,82.5,90,90,47.5,52.5,55,55,95,102.5,110,110,255,SBD
1,Takiah Brownlow,,F,23,Raw,FR-Jr,59.7,63,110,120,127.5,127.5,50,52.5,-55,52.5,135,150,155,155,335,SBD
1,Beata Petenyi,,F,23,Raw,FR-Jr,65.25,69,120,125,130,130,70,75,-80,75,130,140,150,150,355,SBD
1,Adele Tickle,,F,33,Raw,FR-O,50.2,52,102.5,107.5,112.5,112.5,60,62.5,65.5,65.5,130,140,147.5,147.5,325.5,SBD
2,Catherine Cooper,,F,21,Raw,FR-O,51.5,52,75,82.5,90,90,47.5,52.5,55,55,95,102.5,110,110,255,SBD
1,Katie Higham,,F,24,Raw,FR-O,53.25,57,105,107.5,110,110,55,57.5,-60,57.5,160,165,167.5,167.5,335,SBD
2,Sophie Newby,,F,31,Raw,FR-O,55.7,57,85,90,92.5,92.5,50,52.5,-55,52.5,105,112.5,120,120,265,SBD
G,Cristiana Sessini,,F,31,Raw,FR-O,52.9,57,100,105,-110,105,67.5,72.5,75,75,105,115,-120,115,295,SBD
G,Phuong Bui,,F,22,Raw,FR-O,56.9,57,87.5,92.5,97.5,97.5,50,52.5,55,55,115,122.5,127.5,127.5,280,SBD
1,Rebecca Routledge,,F,27,Raw,FR-O,62.05,63,105,110,-120,110,75,-82.5,-82.5,75,145,155,160,160,345,SBD
2,Takiah Brownlow,,F,23,Raw,FR-O,59.7,63,110,120,127.5,127.5,50,52.5,-55,52.5,135,150,155,155,335,SBD
3,Charlotte Walmsley,,F,27,Raw,FR-O,62.3,63,110,115,122.5,122.5,60,-65,65,65,120,125,130,130,317.5,SBD
G,Raffaella Gullo,,F,27,Raw,FR-O,58.7,63,70,85,-90,85,-35,40,45,45,82.5,87.5,92.5,92.5,222.5,SBD
1,Beata Petenyi,,F,23,Raw,FR-O,65.25,69,120,125,130,130,70,75,-80,75,130,140,150,150,355,SBD
2,Alison Jones,,F,28,Raw,FR-O,68.35,69,-120,120,125,125,60,65,-70,65,150,-155,-155,150,340,SBD
3,Jade Stubbs,,F,23,Raw,FR-O,67.45,69,-100,100,-105,100,55,60,65,65,115,122.5,130,130,295,SBD
G,Diamand Franklin,,F,31,Raw,FR-O,74.3,76,130,137.5,142.5,142.5,-85,90,-95,90,162.5,172.5,180,180,412.5,SBD
G,Libby Rubin,,F,18,Raw,FR-O,73.85,76,-120,120,130,130,55,60,-65,60,150,155,-160,155,345,SBD
DQ,Ashleigh Harman,,F,32,Raw,FR-O,72.8,76,-60,-70,-70,,30,37.5,40,40,82.5,97.5,107.5,107.5,,SBD
1,Abigail Broadbelt,,F,37,Raw,FR-O,77.9,84,110,117.5,122.5,122.5,50,55,-60,55,130,135,140,140,317.5,SBD
1,Tari Taylor,,F,34,Raw,FR-O,102.8,84+,155,-165,165,165,75,80,85,85,155,165,175,175,425,SBD
2,Sigourney Brown,,F,29,Raw,FR-O,96.6,84+,-110,120,-135,120,50,60,65,65,120,130,150,150,335,SBD
DQ,Georgina Webb #1,,F,28,Raw,FR-O,115.8,84+,90,100,110,110,-55,-55,-55,,120,130,,130,,SBD
1,Danny Cottam,,M,16,Raw,MR-Sj,79.85,83,155,165,172.5,172.5,85,92.5,-95,92.5,180,190,-200,190,455,SBD
2,Thomas Lord,,M,17,Raw,MR-Sj,77.1,83,165,175,185,185,80,87.5,-95,87.5,165,175,180,180,452.5,SBD
G,Oliver Fielding,,M,17,Raw,MR-Sj,82.6,83,160,170,-180,170,-110,-115,115,115,190,200,-205,200,485,SBD
G,Josh Underwood,,M,18,Raw,MR-Sj,92.05,93,190,197.5,-205,197.5,-137.5,142.5,-150,142.5,220,232.5,240,240,580,SBD
G,Gwilym Poyelle,,M,17,Raw,MR-Sj,88.3,93,165,180,190,190,100,110,115,115,200,220,230,230,535,SBD
1,Dylan King,,M,19,Raw,MR-Jr,79.65,83,190,200,207.5,207.5,110,115,120,120,235,247.5,255,255,582.5,SBD
2,Tim Down,,M,22,Raw,MR-Jr,81.55,83,187.5,195,200,200,-112.5,-115,115,115,230,237.5,-242.5,237.5,552.5,SBD
3,Bhav Madnani,,M,23,Raw,MR-Jr,80.05,83,180,190,-197.5,190,115,122.5,-130,122.5,210,222.5,235,235,547.5,SBD
4,Chris Kennedy #7,,M,19,Raw,MR-Jr,76.15,83,170,177.5,-180,177.5,95,110,-112.5,110,210,225,-230,225,512.5,SBD
5,Benny Zheng,,M,19,Raw,MR-Jr,81.3,83,150,157.5,167.5,167.5,102.5,-110,112.5,112.5,195,205,-212.5,205,485,SBD
6,Harry Harwood,,M,19,Raw,MR-Jr,81.6,83,147.5,157.5,165,165,90,97.5,-105,97.5,187.5,195,202.5,202.5,465,SBD
1,Luke Broadhurst,,M,16,Raw,MR-O,58,59,90,105,110,110,50,-60,-65,50,130,140,150,150,310,SBD
1,Ihsan Alattar,,M,20,Raw,MR-O,64.85,66,150,165,-167.5,165,105,112.5,-117.5,112.5,170,180,190,190,467.5,SBD
2,Zubair Rahman,,M,16,Raw,MR-O,59.25,66,-117.5,125,130,130,-67.5,72.5,80,80,147.5,155,170,170,380,SBD
3,Mohammed Ismaeel,,M,17,Raw,MR-O,65.35,66,115,127.5,135,135,67.5,75,-80,75,145,160,170,170,380,SBD
1,Tom Barlow,,M,33,Raw,MR-O,74,74,170,180,192.5,192.5,115,-125,130,130,200,210,220,220,542.5,SBD
2,Tom Lowe,,M,21,Raw,MR-O,72.9,74,175,-190,-200,175,120,130,135,135,200,210,217.5,217.5,527.5,SBD
3,Adam Hibbert,,M,20,Raw,MR-O,71.8,74,175,-190,190,190,100,105,,105,210,225,-232.5,225,520,SBD
4,Adam McCarthy,,M,24,Raw,MR-O,66.05,74,145,157.5,165,165,105,112.5,117.5,117.5,200,210,215,215,497.5,SBD
5,Alex McManus,,M,27,Raw,MR-O,73.35,74,162.5,172.5,182.5,182.5,85,90,95,95,195,207.5,217.5,217.5,495,SBD
6,Matt Poole,,M,31,Raw,MR-O,71.2,74,152.5,162.5,-170,162.5,110,117.5,125,125,190,200,205,205,492.5,SBD
7,Callum McGovern,,M,21,Raw,MR-O,73.95,74,170,180,-190,180,105,-115,-115,105,200,-210,,200,485,SBD
8,Jordan Lancaster,,M,25,Raw,MR-O,72.2,74,-155,-160,160,160,77.5,-82.5,82.5,82.5,165,175,180,180,422.5,SBD
G,Nathan McDowell,,M,20,Raw,MR-O,73.8,74,210,220,230,230,127.5,135,140,140,215,225,230,230,600,SBD
1,Dylan King,,M,19,Raw,MR-O,79.65,83,190,200,207.5,207.5,110,115,120,120,235,247.5,255,255,582.5,SBD
2,Tim Down,,M,22,Raw,MR-O,81.55,83,187.5,195,200,200,-112.5,-115,115,115,230,237.5,-242.5,237.5,552.5,SBD
3,Bhav Madnani,,M,23,Raw,MR-O,80.05,83,180,190,-197.5,190,115,122.5,-130,122.5,210,222.5,235,235,547.5,SBD
4,Martin Hathaway,,M,32,Raw,MR-O,77.8,83,175,187.5,-200,187.5,120,127.5,132.5,132.5,200,215,-225,215,535,SBD
5,Chris Kennedy #7,,M,19,Raw,MR-O,76.15,83,170,177.5,-180,177.5,95,110,-112.5,110,210,225,-230,225,512.5,SBD
6,Benny Zheng,,M,19,Raw,MR-O,81.3,83,150,157.5,167.5,167.5,102.5,-110,112.5,112.5,195,205,-212.5,205,485,SBD
7,Harry Harwood,,M,19,Raw,MR-O,81.6,83,147.5,157.5,165,165,90,97.5,-105,97.5,187.5,195,202.5,202.5,465,SBD
8,Danny Cottam,,M,16,Raw,MR-O,79.85,83,155,165,172.5,172.5,85,92.5,-95,92.5,180,190,-200,190,455,SBD
9,Thomas Lord,,M,17,Raw,MR-O,77.1,83,165,175,185,185,80,87.5,-95,87.5,165,175,180,180,452.5,SBD
10,Matteo Carbonieri,,M,30,Raw,MR-O,77.7,83,140,150,155,155,95,100,105,105,165,175,185,185,445,SBD
DQ,Svetoslav Mechev,,M,32,Raw,MR-O,82.5,83,150,155,,155,-105,-105,-105,,170,177.5,,177.5,,SBD
G,Oliver Fielding,,M,17,Raw,MR-O,82.6,83,160,170,-180,170,-110,-115,115,115,190,200,-205,200,485,SBD
1,Danny Lee #2,,M,31,Raw,MR-O,90,93,200,210,215,215,140,145,147.5,147.5,225,240,252.5,252.5,615,SBD
2,Chris Ward,,M,26,Raw,MR-O,91.5,93,205,212.5,220,220,137.5,142.5,147.5,147.5,215,227.5,237.5,237.5,605,SBD
3,Connor Griffiths,,M,22,Raw,MR-O,90.45,93,175,185,195,195,-115,117.5,125,125,220,232.5,240,240,560,SBD
4,Nick Court,,M,32,Raw,MR-O,91.25,93,180,200,,200,105,-120,-120,105,200,220,240,240,545,SBD
5,Patrick Squires,,M,16,Raw,MR-O,84.7,93,175,190,-200,190,100,115,122.5,122.5,200,225,-235,225,537.5,SBD
6,Mateusz Fijalkowski,,M,20,Raw,MR-O,89.45,93,165,175,185,185,120,130,135,135,190,200,210,210,530,SBD
7,Tiancheng Tang,,M,23,Raw,MR-O,90.95,93,180,200,-210,200,125,-130,130,130,200,-215,-215,200,530,SBD
8,Dale Dickinson,,M,37,Raw,MR-O,92.95,93,170,-185,185,185,105,115,120,120,205,215,225,225,530,SBD
G,Josh Underwood,,M,18,Raw,MR-O,92.05,93,190,197.5,-205,197.5,-137.5,142.5,-150,142.5,220,232.5,240,240,580,SBD
G,Gwilym Poyelle,,M,17,Raw,MR-O,88.3,93,165,180,190,190,100,110,115,115,200,220,230,230,535,SBD
G,Keith Blacknell,,M,59,Raw,MR-O,92.1,93,170,175,180,180,110,115,-120,115,175,-180,-180,175,470,SBD
DQ,Robert Cunningham,,M,35,Raw,MR-O,100.8,105,-180,-180,-180,,115,120,125,125,180,190,195,195,,SBD
G,Antonio Rizzitiello,,M,39,Raw,MR-O,105,105,210,220,225,225,130,140,-147.5,140,230,245,260,260,625,SBD
1,Frazer Pennington,,M,26,Raw,MR-O,115.9,120,245,262.5,275,275,150,165,-180,165,250,270,295,295,735,SBD
2,Dominic Coman,,M,26,Raw,MR-O,118.6,120,272.5,285,-292.5,285,165,170,-175,170,250,270,280,280,735,SBD
3,PK Isokpan,,M,22,Raw,MR-O,115,120,220,235,250,250,132.5,140,145,145,240,260,275,275,670,SBD
4,Ben Harrison,,M,37,Raw,MR-O,116.7,120,180,202.5,215,215,135,147.5,-150,147.5,210,-232.5,-232.5,210,572.5,SBD
