Place,Name,State,WeightClassKg,BodyweightKg,Age,Best3SquatKg,Best3BenchKg,Best3DeadliftKg,TotalKg,Sex,Division,Equipment,Event,Bench4Kg
1,Lexus Valykeo,OH,60,58.7,21,80,55,102.5,237.5,F,Juniors 20-23,Raw,SBD,
1,Katie Bryan,OH,90+,97.5,18,105,62.5,117.5,285,F,Juniors 18-19,Raw,SBD,
1,Kasey Pagani,OH,67.5,67.1,23,107.5,62.5,137.5,307.5,F,Open,Raw,SBD,
2,Amber Anthony,OH,67.5,66.3,31,92.5,45,122.5,260,F,Open,Raw,SBD,
1,Jolene Ball,OH,75,74.3,39,137.5,85,167.5,390,F,Open,Raw,SBD,
1,Amber Simpkins,OH,82.5,80.9,33,162.5,115,190,467.5,F,Open,Raw,SBD,
1,Jolene Ball,OH,75,74.3,39,137.5,85,167.5,390,F,Submasters 35-39,Raw,SBD,
1,Sara Kelley,OH,90+,132.6,35,125,85,160,370,F,Submasters 35-39,Raw,SBD,
1,Sarah Farmer,OH,60,59.4,44,60,42.5,92.5,195,F,Masters 40-44,Raw,SBD,
1,Stephanie Irwin,OH,67.5,66.1,51,102.5,62.5,152.5,317.5,F,Masters 50-54,Raw,SBD,
1,Kendra Joaquin,OH,82.5,79.8,40,92.5,67.5,122.5,282.5,F,Masters 40-44,Raw,SBD,
1,Christine Ferrante,OH,90,88.9,45,85,70,127.5,282.5,F,Masters 45-49,Raw,SBD,
1,Aaron Babet,OH,52,39.1,13,77.5,47.5,110,235,M,Juniors 13-15,Raw,SBD,
1,Aidan Cunningham,OH,75,72.5,15,122.5,80,150,352.5,M,Juniors 13-15,Raw,SBD,
1,Patrick Gallagher,OH,75,73.8,18,155,112.5,200,467.5,M,Juniors 18-19,Raw,SBD,
1,Nick Moskowitz,OH,75,74.3,23,160,135,205,500,M,Juniors 20-23,Raw,SBD,
2,Maxwell Newman,OH,75,74.7,22,145,82.5,182.5,410,M,Juniors 20-23,Raw,SBD,
1,Matthew Morrow,OH,82.5,81.6,17,182.5,115,192.5,490,M,Juniors 16-17,Raw,SBD,
1,Jordan Miller #2,OH,82.5,81,21,227.5,152.5,227.5,607.5,M,Juniors 20-23,Raw,SBD,
1,Ethan Moore #2,OH,100,98.9,17,165,107.5,192.5,465,M,Juniors 16-17,Raw,SBD,
1,Christian Bond,PA,100,99.1,23,185,217.5,287.5,690,M,Juniors 20-23,Raw,SBD,
1,Colton Burkhart,OH,110,105.1,13,115,85,182.5,382.5,M,Juniors 13-15,Raw,SBD,
1,Gabe Overton,OH,110,108.6,17,275,182.5,247.5,705,M,Juniors 16-17,Raw,SBD,
1,Will Gallien,OH,140,139,17,270,147.5,227.5,645,M,Juniors 16-17,Raw,SBD,
1,Jacob Embree,OH,140+,141.3,16,177.5,92.5,240,510,M,Juniors 16-17,Raw,SBD,
1,Nick Adams,OH,140+,149.3,20,215,120,240,575,M,Juniors 20-23,Raw,SBD,
1,Nick Moskowitz,OH,75,74.3,23,160,135,205,500,M,Open,Raw,SBD,
1,Jordan Miller #2,OH,82.5,81,21,227.5,152.5,227.5,607.5,M,Open,Raw,SBD,
2,Kyle Agner,OH,82.5,79.3,20,190,142.5,227.5,560,M,Open,Raw,SBD,
1,Phillip Roberts,OH,90,87.6,28,222.5,170,252.5,645,M,Open,Raw,SBD,
1,Christian Bond,PA,100,99.1,23,185,217.5,287.5,690,M,Open,Raw,SBD,
2,Michael Richards #3,OH,100,97.9,24,187.5,127.5,195,510,M,Open,Raw,SBD,
1,Gabe Overton,OH,110,108.6,17,275,182.5,247.5,705,M,Open,Raw,SBD,
2,Jeff Vasenda,OH,110,108.9,31,205,172.5,297.5,675,M,Open,Raw,SBD,
3,Kyle Thigpen,OH,110,109.4,38,212.5,147.5,262.5,622.5,M,Open,Raw,SBD,
1,Keith Maruna,OH,125,117.9,33,280,177.5,255,712.5,M,Open,Raw,SBD,
2,Seth Eply,OH,125,113.1,27,242.5,155,305,702.5,M,Open,Raw,SBD,
1,Will Gallien,OH,140,139,17,270,147.5,227.5,645,M,Open,Raw,SBD,
1,Jacob Moran,OH,140+,153.1,22,302.5,172.5,260,735,M,Open,Raw,SBD,
1,Robert Mackall,OH,90,88.8,45,177.5,110,200,487.5,M,Masters 45-49,Raw,SBD,
1,Patrick Schottenheimer,OH,125,123.4,45,240,170,262.5,672.5,M,Masters 45-49,Raw,SBD,
DQ,Ben Webster,OH,67.5,64.8,17,110,,,,M,Juniors 16-17,Wraps,SBD,
1,Jeromy Bryk,OH,82.5,81.8,23,232.5,147.5,260,640,M,Juniors 20-23,Wraps,SBD,
1,Jonathan Parfejewiec,OH,100,97.6,21,222.5,135,235,592.5,M,Juniors 20-23,Wraps,SBD,
1,Jeromy Bryk,OH,82.5,81.8,23,232.5,147.5,260,640,M,Open,Wraps,SBD,
1,Efrain Tejada,OH,90,89.2,41,207.5,147.5,237.5,592.5,M,Open,Wraps,SBD,
2,Chad Fette,PA,90,89.5,34,185,137.5,250,572.5,M,Open,Wraps,SBD,
DQ,Seth Crawford,OH,90,89.2,27,,,,,M,Open,Wraps,SBD,
1,Harrison Stickelman,OH,100,96.5,24,305,195,310,810,M,Open,Wraps,SBD,
2,Jonathan Parfejewiec,OH,100,97.6,21,222.5,135,235,592.5,M,Open,Wraps,SBD,
1,Jordan Collier,TN,125,114.3,24,227.5,155,282.5,665,M,Open,Wraps,SBD,
1,Mike Quintus,OH,110,103.6,39,160,110,207.5,477.5,M,Submasters 35-39,Wraps,SBD,
1,Efrain Tejada,OH,90,89.2,41,207.5,147.5,237.5,592.5,M,Masters 40-44,Wraps,SBD,
1,Kevin Cochenour,OH,100,98.5,42,187.5,127.5,202.5,517.5,M,Masters 40-44,Wraps,SBD,
1,Amber Simpkins,OH,82.5,80.9,33,,115,,115,F,Open,Raw,B,
1,Sara Kelley,OH,90+,132.6,35,,85,,85,F,Submasters 35-39,Raw,B,
1,Christian Bond,PA,100,99.1,23,,217.5,,217.5,M,Juniors 20-23,Raw,B,
1,Jacob Williams,PA,82.5,80,43,,192.5,,192.5,M,Open,Raw,B,
2,Jarrod Mulheim,OH,82.5,79.7,34,,130,,130,M,Open,Raw,B,
1,Phillip Roberts,OH,90,87.6,28,,170,,170,M,Open,Raw,B,
DQ,Seth Crawford,OH,90,89.2,27,,,,,M,Open,Raw,B,
1,Christian Bond,PA,100,99.1,23,,217.5,,217.5,M,Open,Raw,B,
1,Ryan Hughes #1,OH,140+,149.1,25,,225,,225,M,Open,Raw,B,
1,Mike Quintus,OH,110,103.6,39,,110,,110,M,Submasters 35-39,Raw,B,
1,Thad Tillison,OH,140+,141.1,37,,242.5,,242.5,M,Submasters 35-39,Raw,B,
1,Jacob Williams,PA,82.5,80,43,,192.5,,192.5,M,Masters 40-44,Raw,B,
1,Kevin Cochenour,OH,100,98.5,42,,127.5,,127.5,M,Masters 40-44,Raw,B,
1,Sara Kelley,OH,90+,132.6,35,,,160,160,F,Submasters 35-39,Raw,D,
1,Christian Bond,PA,100,99.1,23,,,287.5,287.5,M,Juniors 20-23,Raw,D,
1,Christian Bond,PA,100,99.1,23,,,287.5,287.5,M,Open,Raw,D,
DQ,Scott Schultz,TX,100,99,34,,,,,M,Open,Raw,D,
1,Mike Bartos,OH,125,124.8,29,,,352.5,352.5,M,Open,Raw,D,
1,Mike Quintus,OH,110,103.6,39,,,207.5,207.5,M,Submasters 35-39,Raw,D,
1,Kevin Cochenour,OH,100,98.5,42,,,202.5,202.5,M,Masters 40-44,Raw,D,
1,Sonya Oliver,OH,90+,108.1,53,,52.5,122.5,175,F,Masters 50-54,Raw,BD,
1,Aaron Slabic,OH,75,73.5,22,,125,245,370,M,Juniors 20-23,Raw,BD,
1,Christian Bond,PA,100,99.1,23,,217.5,287.5,505,M,Juniors 20-23,Raw,BD,
2,Martin Cunningham,OH,100,95.3,21,,140,240,380,M,Juniors 20-23,Raw,BD,
1,Aaron Slabic,OH,75,73.5,22,,125,245,370,M,Open,Raw,BD,
1,Efrain Tejada,OH,90,89.2,41,,147.5,237.5,385,M,Open,Raw,BD,
DQ,Seth Crawford,OH,90,89.2,27,,,,,M,Open,Raw,BD,
1,Christian Bond,PA,100,99.1,23,,217.5,287.5,505,M,Open,Raw,BD,
DQ,Scott Schultz,TX,100,99,34,,165,,,M,Open,Raw,BD,
1,Kyle Thigpen,OH,110,109.4,38,,147.5,262.5,410,M,Open,Raw,BD,
1,Ryan Hughes #1,OH,140+,149.1,25,,225,285,510,M,Open,Raw,BD,
1,Thad Tillison,OH,140+,141.1,37,,242.5,300,542.5,M,Submasters 35-39,Raw,BD,
1,Efrain Tejada,OH,90,89.2,41,,147.5,237.5,385,M,Masters 40-44,Raw,BD,
1,Keith Shinn,OH,100,99.2,43,,187.5,247.5,435,M,Masters 40-44,Raw,BD,195
1,Patrick Schottenheimer,OH,125,123.4,45,,170,262.5,432.5,M,Masters 45-49,Raw,BD,
