Place,Name,Sex,Event,Division,WeightClassKg,Equipment,BirthYear,Team,State,BodyweightKg,Squat1Kg,Squat2Kg,Squat3Kg,Best3SquatKg,Bench1Kg,Bench2Kg,Bench3Kg,Best3BenchKg,Deadlift1Kg,Deadlift2Kg,Deadlift3Kg,Best3DeadliftKg,TotalKg,BirthDate,Age
DQ,Annica Gonzales,F,SBD,F-G,57,Single-ply,2005,,TX,54.9,-120,,,,,,,,,,,,,,
1,Ryann Roberson,F,SBD,F-JV,47,Single-ply,2006,,LA,46.38,75,-87.5,-87.5,75,42.5,45,50,50,82.5,-92.5,102.5,102.5,227.5,,
2,Hanna Mercado,F,SBD,F-JV,47,Single-ply,2005,,TX,43.04,82.5,90,-105,90,42.5,47.5,50,50,65,77.5,85,85,225,,
1,Brooklyn Mazzuca,F,SBD,F-JV,52,Single-ply,2006,,WI,51.9,117.5,125,-132.5,125,52.5,-57.5,57.5,57.5,125,137.5,-142.5,137.5,320,,
2,Kayleigh Koepke,F,SBD,F-JV,52,Single-ply,2005,,PA,51.06,107.5,117.5,-122.5,117.5,45,52.5,-57.5,52.5,107.5,-110,-110,107.5,277.5,,
3,Caroline Lagarde,F,SBD,F-JV,52,Single-ply,2006,,LA,50.18,95,102.5,107.5,107.5,52.5,57.5,-60,57.5,97.5,105,107.5,107.5,272.5,,
1,Emma Moore,F,SBD,F-JV,57,Single-ply,2005,,LA,54,110,-117.5,-117.5,110,55,60,-62.5,60,115,117.5,-125,117.5,287.5,,
1,Kathryn Sindelar,F,SBD,F-JV,63,Single-ply,2005,,WI,59.1,90,-95,-95,90,32.5,37.5,40,40,90,100,105,105,235,,
1,Savannah Zuniga,F,SBD,F-JV,69,Single-ply,2004,,TX,67.2,142.5,160,165,165,75,-80,-80,75,62.5,155,170,170,410,,
1,Abigail Hoelzel,F,SBD,F-JV,84,Single-ply,2005,,WI,77.4,137.5,-147.5,147.5,147.5,-50,52.5,-55,52.5,135,147.5,152.5,152.5,352.5,,
2,Jenna Austin,F,SBD,F-JV,84,Single-ply,2006,,WI,80.1,132.5,142.5,-147.5,142.5,52.5,57.5,62.5,62.5,102.5,110,117.5,117.5,322.5,,
DQ,Alexus Manthey,F,SBD,F-JV,84,Single-ply,2005,,WI,77.9,-127.5,-127.5,-127.5,,-57.5,57.5,65,65,100,105,112.5,112.5,,,
1,Jalyssa Garcia,F,SBD,F-JV,84+,Single-ply,2004,,TX,124.2,142.5,167.5,-182.5,167.5,60,102.5,-117.5,102.5,140,150,-152.5,150,420,,
2,Maddyson Ladner,F,SBD,F-JV,84+,Single-ply,2006,,LA,90.5,105,115,-137.5,115,50,-57.5,-57.5,50,105,110,120,120,285,,
1,Brennan Fallon,F,SBD,F-V,43,Single-ply,2003,,LA,42.85,102.5,112.5,125,125,55,62.5,70,70,92.5,107.5,117.5,117.5,312.5,,
2,Alison Phillips,F,SBD,F-V,43,Single-ply,2004,Vermilion Parish Powerlifting,LA,39.95,30,45,52.5,52.5,27.5,32.5,35,35,55,65,75,75,162.5,,
1,Kaidynce Manuel,F,SBD,F-V,47,Single-ply,2005,,LA,45.5,-132.5,132.5,140,140,57.5,62.5,67.5,67.5,117.5,127.5,-132.5,127.5,335,,
2,Shaye Robertson,F,SBD,F-V,47,Single-ply,2004,Vermilion Parish Powerlifting,LA,46,112.5,122.5,127.5,127.5,70,-80,80,80,107.5,117.5,-130,117.5,325,,
3,Devany Monsivais,F,SBD,F-V,47,Single-ply,2004,,TX,46.8,102.5,112.5,120,120,-52.5,52.5,55,55,120,130,135,135,310,,
4,Saleen Nyman,F,SBD,F-V,47,Single-ply,2004,,TX,46.5,115,-122.5,-122.5,115,60,-65,-65,60,117.5,125,-130,125,300,,
5,Lola Cheramie,F,SBD,F-V,47,Single-ply,2004,Covington Powerlifting Club,LA,46.4,110,120,125,125,52.5,55,-60,55,110,-117.5,-120,110,290,,
6,Emma Lazarus,F,SBD,F-V,47,Single-ply,2006,9.4,LA,46.95,-110,110,-115,110,45,50,-55,50,112.5,122.5,-142.5,122.5,282.5,,
7,Mallory Guillie,F,SBD,F-V,47,Single-ply,2004,Covington Powerlifting Club,LA,46.5,95,-105,105,105,55,60,62.5,62.5,92.5,102.5,-115,102.5,270,,
1,Alyssa Kirchner,F,SBD,F-V,52,Single-ply,2002,,MS,51.74,130,135,-140,135,65,70,-72.5,70,130,-137.5,-137.5,130,335,,
2,Samantha Mahlum,F,SBD,F-V,52,Single-ply,2002,GTown Power,WI,51.2,95,100,102.5,102.5,-55,55,-57.5,55,120,130,135,135,292.5,,
3,Maura McLaughlin,F,SBD,F-V,52,Single-ply,2004,,MS,48.44,95,105,107.5,107.5,60,65,67.5,67.5,100,110,-115,110,285,,
4,Jasmine Davis #2,F,SBD,F-V,52,Single-ply,2006,Vermilion Parish Powerlifting,LA,51.08,-70,70,87.5,87.5,35,40,45,45,75,77.5,92.5,92.5,225,,
1,Allison Hoerner,F,SBD,F-V,57,Single-ply,2005,,TX,55.84,142.5,155,-160,155,70,80,82.5,82.5,137.5,147.5,155,155,392.5,,
2,Abigail Schuerman,F,SBD,F-V,57,Single-ply,2004,,WI,56.78,127.5,137.5,145,145,62.5,67.5,70,70,130,140,-147.5,140,355,,
3,Savannah Burke,F,SBD,F-V,57,Single-ply,2002,Q101 Strength Syndicate,LA,56.72,122.5,-130,130,130,85,87.5,92.5,92.5,122.5,130,-135,130,352.5,,
4,Lexi Steinmann,F,SBD,F-V,57,Single-ply,2003,,LA,56.2,115,127.5,-137.5,127.5,70,72.5,-75,72.5,125,140,-152.5,140,340,,
5,Asia Davis,F,SBD,F-V,57,Single-ply,2004,,LA,56.8,97.5,107.5,117.5,117.5,42.5,50,57.5,57.5,100,115,130,130,305,,
6,Bailey Barber,F,SBD,F-V,57,Single-ply,2004,9.4,LA,56.82,-120,120,-135,120,-55,55,,55,120,127.5,-132.5,127.5,302.5,,
7,Aeryn Anderson,F,SBD,F-V,57,Single-ply,2004,Covington Powerlifting Club,LA,56.04,105,115,-125,115,55,-62.5,-62.5,55,112.5,-122.5,122.5,122.5,292.5,,
8,Angela Brailey,F,SBD,F-V,57,Single-ply,2004,Vermilion Parish Powerlifting,LA,56.82,-95,95,105,105,67.5,72.5,77.5,77.5,100,-110,110,110,292.5,,
1,Angelina Battige,F,SBD,F-V,63,Single-ply,2004,,WI,61.76,-190,190,202.5,202.5,97.5,107.5,112.5,112.5,197.5,205,-207.5,205,520,,
2,Victoria Pogorzelski,F,SBD,F-V,63,Single-ply,2004,,WI,60.12,142.5,-147.5,147.5,147.5,77.5,85,90,90,152.5,160,-162.5,160,397.5,,
3,Skylar Odom,F,SBD,F-V,63,Single-ply,2003,9.4,LA,62.62,155,-165,-165,155,-65,65,75,75,130,137.5,142.5,142.5,372.5,,
4,Hailey Hessler,F,SBD,F-V,63,Single-ply,2003,GTown Power,WI,61.68,137.5,145,150,150,75,-77.5,-77.5,75,130,137.5,-147.5,137.5,362.5,,
5,Kendal Frazier,F,SBD,F-V,63,Single-ply,2003,Covington Powerlifting Club,LA,62.8,125,137.5,150,150,-67.5,67.5,-75,67.5,115,125,-147.5,125,342.5,,
6,Katelynn Caillouet,F,SBD,F-V,63,Single-ply,2002,Covington Powerlifting Club,LA,61.38,125,-135,-135,125,65,75,80,80,105,115,132.5,132.5,337.5,,
7,Analysa Munoz,F,SBD,F-V,63,Single-ply,2002,,TX,59.76,120,-135,-135,120,-62.5,62.5,70,70,132.5,142.5,-147.5,142.5,332.5,,
8,Amaya Thomas,F,SBD,F-V,63,Single-ply,2004,1901 Powerlifting,LA,61.04,92.5,-102.5,102.5,102.5,47.5,55,60,60,110,117.5,132.5,132.5,295,,
9,Casyn Little,F,SBD,F-V,63,Single-ply,2004,,TX,61.58,102.5,115,-125,115,50,57.5,-62.5,57.5,102.5,117.5,-125,117.5,290,,
10,Chloe Major,F,SBD,F-V,63,Single-ply,2004,1901 Powerlifting,LA,59.44,100,107.5,-112.5,107.5,42.5,47.5,-50,47.5,105,112.5,120,120,275,,
1,Lauren Pimentel,F,SBD,F-V,69,Single-ply,2003,,MA,65.76,190,200,-207.5,200,100,107.5,112.5,112.5,177.5,187.5,-192.5,187.5,500,,
2,Janee Kovacs,F,SBD,F-V,69,Single-ply,2003,,LA,66.84,160,172.5,182.5,182.5,77.5,82.5,85,85,160,170,180,180,447.5,,
3,Bijanae Thomas,F,SBD,F-V,69,Single-ply,2002,Purple & Gold Powerlifting,LA,65.88,152.5,165,177.5,177.5,72.5,80,85,85,157.5,170,182.5,182.5,445,,
4,Jimisha Thomas,F,SBD,F-V,69,Single-ply,2004,,MS,65.74,167.5,180,-185,180,-70,70,75,75,175,180,-192.5,180,435,,
5,Peyton Busteed,F,SBD,F-V,69,Single-ply,2004,,NE,68.18,157.5,167.5,-172.5,167.5,75,82.5,85,85,145,155,162.5,162.5,415,,
6,Angelica Beltran,F,SBD,F-V,69,Single-ply,2003,,TX,67.88,142.5,152.5,-162.5,152.5,65,70,77.5,77.5,152.5,-165,165,165,395,,
7,Peyton Woods,F,SBD,F-V,69,Single-ply,2004,1901 Powerlifting,LA,66.24,127.5,135,142.5,142.5,72.5,77.5,82.5,82.5,135,-142.5,142.5,142.5,367.5,,
8,Haileigh Lupo,F,SBD,F-V,69,Single-ply,2004,Covington Powerlifting Club,LA,68.56,125,137.5,147.5,147.5,77.5,87.5,-95,87.5,110,122.5,127.5,127.5,362.5,,
9,Julia Sherman,F,SBD,F-V,69,Single-ply,2003,GTown Power,WI,63.44,137.5,142.5,150,150,65,70,72.5,72.5,127.5,137.5,-145,137.5,360,,
10,Brooklyn Stroik,F,SBD,F-V,69,Single-ply,2005,GTown Power,WI,63.66,135,-140,-140,135,-87.5,87.5,90,90,112.5,117.5,-132.5,117.5,342.5,,
11,Alyssa Haase,F,SBD,F-V,69,Single-ply,2004,Purple & Gold Powerlifting,LA,68.92,115,127.5,-137.5,127.5,55,60,-67.5,60,120,-132.5,132.5,132.5,320,,
1,Shay Naquin,F,SBD,F-V,76,Single-ply,2003,Purple & Gold Powerlifting,LA,72.65,175,190,-202.5,190,107.5,120,127.5,127.5,165,180,-190,180,497.5,,
2,Haylee Bourque,F,SBD,F-V,76,Single-ply,2005,Vermilion Parish Powerlifting,LA,75.25,140,152.5,165,165,25,70,80,80,90,112.5,127.5,127.5,372.5,,
DQ,Kyla McDowell,F,SBD,F-V,76,Single-ply,2004,Q101 Strength Syndicate,LA,74.25,-132.5,,,,,,,,,,,,,,
1,Amidy Moreno,F,SBD,F-V,84,Single-ply,2002,,TX,83.5,192.5,200,-207.5,200,87.5,102.5,107.5,107.5,157.5,170,175,175,482.5,,
2,Delilah Burgos,F,SBD,F-V,84,Single-ply,2002,,WI,83.7,185,192.5,202.5,202.5,102.5,107.5,112.5,112.5,150,160,165,165,480,,
3,Asia Peterson,F,SBD,F-V,84,Single-ply,2005,Purple & Gold Powerlifting,LA,82.85,152.5,165,175,175,80,-92.5,100,100,160,180,190,190,465,,
4,Kaylee Bonner,F,SBD,F-V,84,Single-ply,2004,,LA,83.35,177.5,-185,,177.5,92.5,-97.5,97.5,97.5,165,-170,170,170,445,,
5,Chloe Cooper,F,SBD,F-V,84,Single-ply,2004,,WI,83.1,-165,165,172.5,172.5,87.5,92.5,-97.5,92.5,135,145,-160,145,410,,
6,Abigail Liker,F,SBD,F-V,84,Single-ply,2003,GTown Power,WI,77.75,150,157.5,165,165,72.5,77.5,-82.5,77.5,150,160,-167.5,160,402.5,,
7,Mikayla Forsythe,F,SBD,F-V,84,Single-ply,2006,Purple & Gold Powerlifting,LA,82.35,142.5,160,-165,160,80,85,90,90,142.5,-160,-160,142.5,392.5,,
8,Kassie Montz,F,SBD,F-V,84,Single-ply,2004,,LA,82,127.5,140,-152.5,140,70,77.5,82.5,82.5,112.5,125,130,130,352.5,,
9,Mia Elfer,F,SBD,F-V,84,Single-ply,2004,1901 Powerlifting,LA,81.05,117.5,122.5,137.5,137.5,67.5,75,-82.5,75,115,122.5,132.5,132.5,345,,
1,Janasia Bell,F,SBD,F-V,84+,Single-ply,2003,Purple & Gold Powerlifting,LA,133.48,185,-205,220,220,107.5,117.5,127.5,127.5,142.5,155,167.5,167.5,515,,
2,Karson Oliver,F,SBD,F-V,84+,Single-ply,2005,,LA,123.16,200,217.5,-227.5,217.5,105,112.5,-120,112.5,160,172.5,-185,172.5,502.5,,
3,Jayla Reaux,F,SBD,F-V,84+,Single-ply,2003,Vermilion Parish Powerlifting,LA,106.36,167.5,182.5,192.5,192.5,127.5,-137.5,137.5,137.5,127.5,147.5,155,155,485,,
4,Andrea Fabela,F,SBD,F-V,84+,Single-ply,2003,,TX,91,190,197.5,205,205,97.5,102.5,105,105,155,165,-175,165,475,,
5,Raygan Bosco,F,SBD,F-V,84+,Single-ply,2004,,LA,100.68,172.5,190,202.5,202.5,77.5,85,-95,85,150,172.5,180,180,467.5,,
6,Arabella Gelhaar,F,SBD,F-V,84+,Single-ply,2005,GTown Power,WI,105.44,-192.5,-192.5,192.5,192.5,90,92.5,-97.5,92.5,155,-165,177.5,177.5,462.5,,
7,Hannah Barnett,F,SBD,F-V,84+,Single-ply,2003,Vermilion Parish Powerlifting,LA,96.1,162.5,177.5,182.5,182.5,110,117.5,125,125,117.5,137.5,-142.5,137.5,445,,
8,Nadia McKay,F,SBD,F-V,84+,Single-ply,2004,Q101 Strength Syndicate,LA,91,155,170,182.5,182.5,-87.5,-90,92.5,92.5,142.5,152.5,165,165,440,,
9,Avery Dunlap,F,SBD,F-V,84+,Single-ply,2005,GTown Power,WI,86.14,142.5,-145,-145,142.5,-75,-75,75,75,130,135,140,140,357.5,,
10,Mireya Roberson,F,SBD,F-V,84+,Single-ply,2006,9.4,LA,90.56,130,-135,-135,130,52.5,60,-62.5,60,125,-135,-135,125,315,,
DQ,Robin Silguero,F,SBD,FR-G,57,Raw,2002,,TX,52.76,-82.5,-82.5,-82.5,,,,,,,,,,,,
1,Andrea Laehn,F,SBD,FR-JV,43,Raw,2005,,WI,40.98,62.5,70,-77.5,70,25,30,-32.5,30,70,80,87.5,87.5,187.5,,
2,Anastasia Blom,F,SBD,FR-JV,43,Raw,2005,,SD,42.08,42.5,47.5,52.5,52.5,25,27.5,-30,27.5,57.5,-65,65,65,145,,
1,Shelby Stricklin,F,SBD,FR-JV,57,Raw,2006,,WY,55.85,95,105,112.5,112.5,52.5,57.5,60,60,97.5,105,110,110,282.5,,
2,Breanna Crocker,F,SBD,FR-JV,57,Raw,2006,,WI,53.95,65,72.5,-80,72.5,32.5,35,-37.5,35,82.5,90,100,100,207.5,,
1,Jessica Fargnoli,F,SBD,FR-JV,63,Raw,2005,,CT,61.95,105,-112.5,112.5,112.5,67.5,70,-72.5,70,135,142.5,150,150,332.5,,
2,Emma Mason,F,SBD,FR-JV,63,Raw,2006,,NC,60.3,107.5,117.5,-122.5,117.5,55,60,-62.5,60,107.5,115,125,125,302.5,,
3,Nellie Dunlap,F,SBD,FR-JV,63,Raw,2005,,WI,62,75,80,87.5,87.5,42.5,47.5,-52.5,47.5,100,105,110,110,245,,
4,Berit Gilbertson,F,SBD,FR-JV,63,Raw,2005,,WI,60.55,85,95,-100,95,45,50,55,55,85,90,-95,90,240,,
DQ,Lydia Forney,F,SBD,FR-JV,63,Raw,2005,,WI,62.05,-60,-65,-65,,-35,-35,35,35,87.5,92.5,100,100,,,
1,Lakely Kloetzke,F,SBD,FR-JV,69,Raw,2005,,WI,67.2,90,92.5,95,95,47.5,-50,50,50,107.5,110,115,115,260,,
2,Taylor Durrett,F,SBD,FR-JV,69,Raw,2004,,LA,64.3,82.5,92.5,97.5,97.5,42.5,47.5,-50,47.5,90,100,105,105,250,,
1,Nevaeh Noonan,F,SBD,FR-JV,76,Raw,2005,,WI,74,-120,120,-132.5,120,55,65,-67.5,65,167.5,177.5,-185,177.5,362.5,,
2,Adrienne Mongeon,F,SBD,FR-JV,76,Raw,2004,,MN,72.8,120,125,-132.5,125,72.5,-77.5,-77.5,72.5,-122.5,122.5,-137.5,122.5,320,,
3,Ava Meyer,F,SBD,FR-JV,76,Raw,2006,,WI,73.25,97.5,105,107.5,107.5,40,45,-47.5,45,110,117.5,125,125,277.5,,
4,Alivia Montezuma,F,SBD,FR-JV,76,Raw,2004,,WI,72.95,85,-92.5,-92.5,85,35,40,-45,40,105,115,120,120,245,,
1,Myah Wenzel,F,SBD,FR-JV,84,Raw,2006,,WI,80.75,105,112.5,115,115,47.5,52.5,-55,52.5,120,127.5,132.5,132.5,300,,
1,Anaiah Johnson,F,SBD,FR-JV,84+,Raw,2006,,LA,118.6,112.5,130,142.5,142.5,47.5,57.5,-65,57.5,117.5,132.5,140,140,340,,
2,Callie Zastrow,F,SBD,FR-JV,84+,Raw,2004,,WI,104.35,110,120,127.5,127.5,50,57.5,-62.5,57.5,117.5,125,130,130,315,,
3,Alissa Barthuly,F,SBD,FR-JV,84+,Raw,2005,,WI,84.75,107.5,112.5,-117.5,112.5,52.5,55,57.5,57.5,117.5,132.5,142.5,142.5,312.5,,
4,Natalie Brooks,F,SBD,FR-JV,84+,Raw,2004,,LA,97.3,92.5,105,115,115,45,50,52.5,52.5,132.5,142.5,-147.5,142.5,310,,
5,Mary-Charlotte Walters,F,SBD,FR-JV,84+,Raw,2004,,LA,104,80,90,100,100,50,55,-57.5,55,107.5,112.5,115,115,270,,
6,Keirra Bryan,F,SBD,FR-JV,84+,Raw,2005,,LA,107.5,70,80,90,90,-52.5,52.5,55,55,105,-117.5,-117.5,105,250,,
7,Brielle Schmeling,F,SBD,FR-JV,84+,Raw,2006,,WI,87.05,67.5,72.5,-80,72.5,40,42.5,47.5,47.5,85,-92.5,-97.5,85,205,,
8,Samantha Franke,F,SBD,FR-JV,84+,Raw,2005,,WI,88.2,70,75,85,85,35,37.5,-40,37.5,67.5,82.5,-95,82.5,205,,
1,Ava Allen,F,SBD,FR-V,43,Raw,2003,,NY,42.25,97.5,102.5,105,105,45,50,55,55,-135,135,145,145,305,,
1,Ariana Pinder,F,SBD,FR-V,47,Raw,2003,Elk Mound High School Powerlifting,WI,46.45,50,52.5,55,55,32.5,-37.5,37.5,37.5,85,-90,97.5,97.5,190,,
2,Bethany Kurshinsky,F,SBD,FR-V,47,Raw,2004,,WI,46.25,55,60,62.5,62.5,32.5,-35,-35,32.5,82.5,-87.5,92.5,92.5,187.5,,
1,Andrea Boyle,F,SBD,FR-V,52,Raw,2005,,MA,51.12,85,92.5,97.5,97.5,45,52.5,-55,52.5,120,130,137.5,137.5,287.5,,
2,Ashley Wisnefske,F,SBD,FR-V,52,Raw,2004,Winneconne,WI,51.38,85,90,95,95,45,50,52.5,52.5,120,130,132.5,132.5,280,,
3,Emma Forst,F,SBD,FR-V,52,Raw,2004,,WI,49.74,87.5,95,100,100,47.5,52.5,57.5,57.5,95,100,112.5,112.5,270,,
4,Emma Gillespie,F,SBD,FR-V,52,Raw,2002,Elk Mound High School Powerlifting,WI,51.14,72.5,77.5,82.5,82.5,42.5,-45,-45,42.5,105,110,120,120,245,,
5,McKenna Trowbridge,F,SBD,FR-V,52,Raw,2004,Hamlin High School,SD,47.2,60,67.5,70,70,37.5,40,42.5,42.5,97.5,102.5,110,110,222.5,,
6,Emma Donahue,F,SBD,FR-V,52,Raw,2006,Neenah Powerlifting Club,WI,48.22,65,72.5,77.5,77.5,32.5,-37.5,-37.5,32.5,80,87.5,92.5,92.5,202.5,,
7,Nanya Kue,F,SBD,FR-V,52,Raw,2003,Elk Mound High School Powerlifting,WI,51.34,65,-67.5,67.5,67.5,37.5,-42.5,-42.5,37.5,-92.5,92.5,-102.5,92.5,197.5,,
8,Carly Crowell,F,SBD,FR-V,52,Raw,2003,,WI,51.36,60,70,-82.5,70,27.5,32.5,37.5,37.5,60,75,-92.5,75,182.5,,
9,Isabella Pedro,F,SBD,FR-V,52,Raw,2004,Cleveland Powerlifting Club,OH,49.58,55,60,-62.5,60,25,27.5,-30,27.5,70,75,82.5,82.5,170,,
DQ,Rylee Ladd,F,SBD,FR-V,52,Raw,2004,,WI,50.42,95,-102.5,-102.5,95,-60,-60,-60,,120,127.5,-130,127.5,,,
1,Sophia Gentile,F,SBD,FR-V,57,Raw,2004,,PA,55.15,142.5,147.5,152.5,152.5,77.5,82.5,-85,82.5,112.5,-117.5,-120,112.5,347.5,,
2,Chloe Suchomel,F,SBD,FR-V,57,Raw,2005,,WI,54.6,97.5,100,105,105,-72.5,75,-82.5,75,137.5,145,150,150,330,,
3,Sara Quinones,F,SBD,FR-V,57,Raw,2006,Full Armour Training Center,CO,56.55,97.5,-105,-105,97.5,60,62.5,-65,62.5,150,155,-170,155,315,,
4,Grace Choponis,F,SBD,FR-V,57,Raw,2004,,MI,56.4,-102.5,-107.5,107.5,107.5,62.5,70,-75,70,127.5,-135,-142.5,127.5,305,,
5,Caralee Suchomel,F,SBD,FR-V,57,Raw,2003,,WI,56.3,92.5,95,100,100,62.5,65,-70,65,117.5,122.5,130,130,295,,
6,Gracie Zeller,F,SBD,FR-V,57,Raw,2002,Winneconne,WI,56.1,90,95,100,100,57.5,62.5,67.5,67.5,102.5,115,120,120,287.5,,
7,Greta Aberle,F,SBD,FR-V,57,Raw,2004,Winneconne,WI,56.2,97.5,107.5,115,115,40,-47.5,-47.5,40,115,132.5,-142.5,132.5,287.5,,
8,Lira Bordoley,F,SBD,FR-V,57,Raw,2002,,MI,55.8,115,117.5,-122.5,117.5,47.5,50,-55,50,110,-112.5,-112.5,110,277.5,,
9,Sierra Braund,F,SBD,FR-V,57,Raw,2004,,WI,54.15,-95,95,-105,95,47.5,52.5,-57.5,52.5,115,125,-130,125,272.5,,
10,Mercedes Hay,F,SBD,FR-V,57,Raw,2004,Elk Mound High School Powerlifting,WI,56.15,87.5,92.5,95,95,50,55,-60,55,102.5,112.5,122.5,122.5,272.5,,
11,Kalie Freiberg,F,SBD,FR-V,57,Raw,2003,,WI,54.95,92.5,97.5,-102.5,97.5,52.5,55,-57.5,55,110,117.5,-120,117.5,270,,
12,Brooke LaPlount,F,SBD,FR-V,57,Raw,2003,,WI,52.75,95,100,105,105,57.5,-60,-60,57.5,-92.5,97.5,-102.5,97.5,260,,
13,Elizabeth Pizarro,F,SBD,FR-V,57,Raw,2004,,WI,55.75,87.5,-100,100,100,52.5,55,-57.5,55,97.5,102.5,-107.5,102.5,257.5,,
14,Leticia Virgilio,F,SBD,FR-V,57,Raw,2004,,NE,55.45,70,-75,77.5,77.5,45,-47.5,-47.5,45,110,115,117.5,117.5,240,,
15,Jada Thompson,F,SBD,FR-V,57,Raw,2005,,WI,54.7,-77.5,85,-92.5,85,42.5,-47.5,-47.5,42.5,102.5,-107.5,-112.5,102.5,230,,
16,Lindey Castine,F,SBD,FR-V,57,Raw,2003,,LA,56.55,62.5,70,72.5,72.5,32.5,35,37.5,37.5,97.5,105,107.5,107.5,217.5,,
1,Adrienna Davis,F,SBD,FR-V,63,Raw,2003,,SC,59.05,145,155,157.5,157.5,82.5,-87.5,87.5,87.5,155,165,-177.5,165,410,,
2,Alyssa Kwarciany,F,SBD,FR-V,63,Raw,2004,,WI,60.45,112.5,120,130,130,62.5,67.5,-70,67.5,135,140,145,145,342.5,,
3,Katherine Cargill,F,SBD,FR-V,63,Raw,2005,,GA,61.9,110,120,-125,120,62.5,67.5,70,70,137.5,145,-155,145,335,,
4,Justine Poppen,F,SBD,FR-V,63,Raw,2003,Hamlin High School,SD,57.01,-92.5,92.5,97.5,97.5,52.5,55,57.5,57.5,127.5,135,145,145,300,,
5,Lauren Sparks,F,SBD,FR-V,63,Raw,2002,,SD,61.15,102.5,107.5,112.5,112.5,57.5,62.5,-67.5,62.5,102.5,107.5,-112.5,107.5,282.5,,
6,Hannah Duncan,F,SBD,FR-V,63,Raw,2006,Full Armour Training Center,CO,59.95,75,82.5,-85,82.5,70,-72.5,-72.5,70,127.5,-130,-132.5,127.5,280,,
7,Margo McCardell,F,SBD,FR-V,63,Raw,2002,,WY,60.5,107.5,-117.5,-117.5,107.5,-62.5,67.5,-75,67.5,105,-112.5,-122.5,105,280,,
8,Ariana Meunier,F,SBD,FR-V,63,Raw,2003,Neenah Powerlifting Club,WI,59.85,85,92.5,95,95,50,-57.5,57.5,57.5,110,120,-127.5,120,272.5,,
9,Megan Thurke,F,SBD,FR-V,63,Raw,2003,,WI,59.05,85,95,-102.5,95,50,-55,-55,50,112.5,-125,125,125,270,,
10,Sydney Clark,F,SBD,FR-V,63,Raw,2004,,VA,61.2,82.5,87.5,92.5,92.5,57.5,60,62.5,62.5,92.5,97.5,105,105,260,,
11,Madyson Janichek,F,SBD,FR-V,63,Raw,2005,Neenah Powerlifting Club,WI,60.25,82.5,90,-92.5,90,50,52.5,-55,52.5,102.5,110,-117.5,110,252.5,,
12,Kate O'Brien,F,SBD,FR-V,63,Raw,2004,,PA,62.75,60,65,70,70,37.5,40,-42.5,40,85,95,-100,95,205,,
13,Keonna Crute,F,SBD,FR-V,63,Raw,2001,Cleveland Powerlifting Club,OH,59.15,50,55,65,65,25,30,-35,30,77.5,85,105,105,200,,
14,Sydney Williams,F,SBD,FR-V,63,Raw,2003,,WI,61.5,57.5,62.5,-67.5,62.5,27.5,-40,-40,27.5,62.5,65,72.5,72.5,162.5,,
1,Gennie Vitt,F,SBD,FR-V,69,Raw,2004,,KS,64.65,147.5,162.5,-165,162.5,75,80,-82.5,80,137.5,147.5,-157.5,147.5,390,,
2,Diana Yturbe,F,SBD,FR-V,69,Raw,2004,,NJ,67.3,122.5,132.5,140,140,62.5,67.5,72.5,72.5,160,177.5,-180,177.5,390,,
3,Mackenzie Weaver,F,SBD,FR-V,69,Raw,2002,,KS,66.1,127.5,-137.5,140,140,82.5,87.5,-90,87.5,145,155,-160,155,382.5,,
4,Hannah Stahmann,F,SBD,FR-V,69,Raw,2003,Winneconne,WI,66.1,115,125,-127.5,125,52.5,57.5,62.5,62.5,137.5,155,157.5,157.5,345,,
5,Gabi D'Avanzo,F,SBD,FR-V,69,Raw,2003,,VA,66.65,107.5,115,120,120,70,75,77.5,77.5,137.5,147.5,-152.5,147.5,345,,
6,Marista Fraley,F,SBD,FR-V,69,Raw,2005,Neenah Powerlifting Club,WI,67.7,100,110,-115,110,52.5,55,57.5,57.5,127.5,137.5,147.5,147.5,315,,
7,Morgan Harwood,F,SBD,FR-V,69,Raw,2005,Neenah Powerlifting Club,WI,66.7,105,112.5,-117.5,112.5,47.5,-52.5,-52.5,47.5,127.5,137.5,147.5,147.5,307.5,,
8,Isabella Harmer,F,SBD,FR-V,69,Raw,2003,Elk Mound High School Powerlifting,WI,66.8,90,97.5,105,105,52.5,57.5,-60,57.5,122.5,130,137.5,137.5,300,,
9,Meghann Christian,F,SBD,FR-V,69,Raw,2004,,WI,66.15,92.5,100,105,105,47.5,50,52.5,52.5,125,132.5,137.5,137.5,295,,
10,Jacquelin Ostrom,F,SBD,FR-V,69,Raw,2002,,NE,66,80,-85,85,85,-50,50,55,55,130,135,140,140,280,,
11,Bailey Gilbertson,F,SBD,FR-V,69,Raw,2003,Elk Mound High School Powerlifting,WI,66.05,85,90,-95,90,40,42.5,-45,42.5,127.5,137.5,142.5,142.5,275,,
12,Madelyn Pritzl,F,SBD,FR-V,69,Raw,2004,,WI,67.15,77.5,82.5,87.5,87.5,47.5,50,52.5,52.5,117.5,127.5,-135,127.5,267.5,,
13,Kyah Fischer,F,SBD,FR-V,69,Raw,2004,,WI,68.2,90,95,-100,95,42.5,47.5,50,50,112.5,-130,-130,112.5,257.5,,
1,Fayth Analise Ham,F,SBD,FR-V,76,Raw,2004,Team Rebmann,TX,69.8,130,137.5,142.5,142.5,65,72.5,-82.5,72.5,142.5,155,162.5,162.5,377.5,,
2,Brooke Ruland,F,SBD,FR-V,76,Raw,2004,,WI,74.25,130,142.5,150,150,65,72.5,-77.5,72.5,132.5,142.5,155,155,377.5,,
3,Grace Anne King,F,SBD,FR-V,76,Raw,2004,,LA,74.5,115,125,-130,125,55,-60,-60,55,132.5,-147.5,-150,132.5,312.5,,
4,Alyse Egan,F,SBD,FR-V,76,Raw,2002,Elk Mound High School Powerlifting,WI,71.35,102.5,112.5,117.5,117.5,52.5,55,-57.5,55,122.5,127.5,-130,127.5,300,,
5,Bailey Moore,F,SBD,FR-V,76,Raw,2003,Neenah Powerlifting Club,WI,72.6,105,110,115,115,55,60,-62.5,60,125,-132.5,-132.5,125,300,,
6,Abbigail Zeller,F,SBD,FR-V,76,Raw,2004,Winneconne,WI,70.05,92.5,-95,-95,92.5,50,57.5,-62.5,57.5,115,125,137.5,137.5,287.5,,
7,Kara Edington,F,SBD,FR-V,76,Raw,2004,Elk Mound High School Powerlifting,WI,71.75,102.5,107.5,115,115,42.5,47.5,52.5,52.5,120,-125,-125,120,287.5,,
8,Kristen Patterson,F,SBD,FR-V,76,Raw,2004,Winneconne,WI,73.65,85,95,97.5,97.5,47.5,50,52.5,52.5,117.5,137.5,-142.5,137.5,287.5,,
9,Dawanna Crosby,F,SBD,FR-V,76,Raw,2003,,LA,71.75,82.5,87.5,92.5,92.5,40,42.5,45,45,115,122.5,125,125,262.5,,
10,Sasha Duncan,F,SBD,FR-V,76,Raw,2002,,WI,73.55,82.5,87.5,-97.5,87.5,42.5,47.5,-50,47.5,110,117.5,120,120,255,,
11,Autumn Schroeder,F,SBD,FR-V,76,Raw,2003,,WI,73.5,70,80,-85,80,37.5,40,-45,40,115,117.5,125,125,245,,
1,Teagan Pahl,F,SBD,FR-V,84,Raw,2004,Elk Mound High School Powerlifting,WI,82.85,120,130,140,140,55,57.5,60,60,137.5,152.5,167.5,167.5,367.5,,
2,Anna Steele,F,SBD,FR-V,84,Raw,2002,,MI,78.2,105,120,135,135,80,-90,-90,80,130,140,-152.5,140,355,,
3,Gianna Howell,F,SBD,FR-V,84,Raw,2003,,TX,79.55,130,135,140,140,-80,-80,80,80,122.5,127.5,-140,127.5,347.5,,
4,Abby Hargrove,F,SBD,FR-V,84,Raw,2004,,KY,82.15,130,137.5,142.5,142.5,60,65,-67.5,65,132.5,140,-147.5,140,347.5,,
5,Caitlyn Keyes,F,SBD,FR-V,84,Raw,2003,Winneconne,WI,80.3,125,130,132.5,132.5,52.5,60,62.5,62.5,130,145,-155,145,340,,
6,Sabin Steinhoff,F,SBD,FR-V,84,Raw,2004,,WI,80.85,115,122.5,127.5,127.5,52.5,57.5,-60,57.5,130,137.5,145,145,330,,
7,Alexius Tonks,F,SBD,FR-V,84,Raw,2003,,MA,78.15,107.5,112.5,117.5,117.5,45,47.5,50,50,102.5,112.5,115,115,282.5,,
8,Chasity Bunting,F,SBD,FR-V,84,Raw,2003,,WI,78.2,65,67.5,-70,67.5,37.5,-42.5,-42.5,37.5,82.5,-90,-90,82.5,187.5,,
9,Laney Corsten,F,SBD,FR-V,84,Raw,2004,,WI,76.55,57.5,62.5,67.5,67.5,30,-35,-35,30,62.5,77.5,-90,77.5,175,,
DQ,Sydney Martin,F,SBD,FR-V,84,Raw,2004,,ID,83.6,-107.5,-107.5,-107.5,,40,42.5,-45,42.5,102.5,115,120,120,,,
1,Hailey Ryan,F,SBD,FR-V,84+,Raw,2003,,MI,139,182.5,197.5,210,210,97.5,100,-105,100,182.5,190,200,200,510,,
2,Emma Asselin,F,SBD,FR-V,84+,Raw,2002,,WI,151.55,150,160,167.5,167.5,87.5,92.5,97.5,97.5,142.5,147.5,157.5,157.5,422.5,,
3,Katherine Kridelbaugh,F,SBD,FR-V,84+,Raw,2003,Neenah Powerlifting Club,WI,123.2,150,160,167.5,167.5,62.5,70,75,75,137.5,145,147.5,147.5,390,,
4,Samaria Modest,F,SBD,FR-V,84+,Raw,2003,,LA,112.35,130,140,-150,140,67.5,70,75,75,150,162.5,-175,162.5,377.5,,
5,Payton Weelborg,F,SBD,FR-V,84+,Raw,2004,Hamlin High School,SD,106.55,135,140,-145,140,-77.5,80,85,85,147.5,-152.5,-155,147.5,372.5,,
6,Karly Huerta,F,SBD,FR-V,84+,Raw,2003,,NE,100.2,125,-132.5,-132.5,125,70,72.5,-75,72.5,147.5,160,167.5,167.5,365,,
7,Hannah Alexander #2,F,SBD,FR-V,84+,Raw,2004,,WI,91.6,117.5,125,132.5,132.5,65,-70,-72.5,65,142.5,157.5,165,165,362.5,,
8,Zakiya Johnson,F,SBD,FR-V,84+,Raw,2003,,LA,99.2,130,152.5,165,165,52.5,65,-70,65,102.5,117.5,127.5,127.5,357.5,,
9,Mikayla Widenski,F,SBD,FR-V,84+,Raw,2003,,WI,96.85,-117.5,117.5,130,130,45,50,-52.5,50,142.5,147.5,-152.5,147.5,327.5,,
10,Abigail Murphy,F,SBD,FR-V,84+,Raw,2005,Elk Mound High School Powerlifting,WI,105.05,105,112.5,120,120,-47.5,47.5,52.5,52.5,112.5,125,147.5,147.5,320,,
11,Ainsley Wood,F,SBD,FR-V,84+,Raw,2002,,LA,86.85,-115,-115,115,115,45,50,52.5,52.5,120,127.5,-137.5,127.5,295,,
12,Arial Haemmerle,F,SBD,FR-V,84+,Raw,2004,Winneconne,WI,86.8,87.5,100,-110,100,45,47.5,-52.5,47.5,112.5,130,-137.5,130,277.5,,
13,Brynn Hundt,F,SBD,FR-V,84+,Raw,2004,,WI,85.65,90,97.5,-102.5,97.5,52.5,-57.5,-57.5,52.5,95,97.5,102.5,102.5,252.5,,
14,Brianna Brazzel,F,SBD,FR-V,84+,Raw,2002,,LA,98.65,-90,90,95,95,42.5,45,-47.5,45,105,112.5,-120,112.5,252.5,,
15,Jennifer Manriquez,F,SBD,FR-V,84+,Raw,2006,Cleveland Powerlifting Club,OH,106.65,90,-97.5,-100,90,32.5,37.5,40,40,102.5,112.5,122.5,122.5,252.5,,
16,Kenyatta Graham,F,SBD,FR-V,84+,Raw,2006,Cleveland Powerlifting Club,OH,84.3,70,75,85,85,42.5,45,50,50,92.5,102.5,-110,102.5,237.5,,
DQ,Sydney Layland,F,SBD,FR-V,84+,Raw,2004,,WI,115.6,-125,-125,-125,,62.5,65,67.5,67.5,127.5,-135,-135,127.5,,,
1,Anastasia Blom,F,SBD,FR-T1,43,Raw,2005,,SD,42.08,42.5,47.5,52.5,52.5,25,27.5,-30,27.5,57.5,-65,65,65,145,,
1,Sara Quinones,F,SBD,FR-T1,57,Raw,2006,Full Armour Training Center,CO,56,97.5,102.5,-107.5,102.5,60,-65,-65,60,150,-162.5,-162.5,150,312.5,,
2,Shelby Stricklin,F,SBD,FR-T1,57,Raw,2006,,WY,55.85,95,105,112.5,112.5,52.5,57.5,60,60,97.5,105,110,110,282.5,,
1,Jessica Fargnoli,F,SBD,FR-T1,63,Raw,2005,,CT,61.95,105,-112.5,112.5,112.5,67.5,70,-72.5,70,135,142.5,150,150,332.5,,
2,Emma Mason,F,SBD,FR-T1,63,Raw,2006,,NC,60.3,107.5,117.5,-122.5,117.5,55,60,-62.5,60,107.5,115,125,125,302.5,,
3,Hannah Duncan,F,SBD,FR-T1,63,Raw,2006,Full Armour Training Center,CO,59.75,70,80,-85,80,65,70,-75,70,120,127.5,-137.5,127.5,277.5,,
1,Olivia Gholson,F,SBD,FR-T1,84,Raw,2006,,TX,79.2,135,145,150.5,150.5,55,60,65,65,150,160,170,170,385.5,,
1,Anaiah Johnson,F,SBD,FR-T1,84+,Raw,2006,,LA,118.6,112.5,130,142.5,142.5,47.5,57.5,-65,57.5,117.5,132.5,140,140,340,,
1,Taiya Hansen,F,SBD,FR-T2,43,Raw,2003,,WA,42.55,80,-90,-90,80,-45,45,-47.5,45,100,-105,-105,100,225,,
1,Sofia Ayala,F,SBD,FR-T2,57,Raw,2003,,TX,56.1,132.5,-140,140,140,52.5,57.5,62.5,62.5,150,170,-182.5,170,372.5,,
2,Sophia Gentile,F,SBD,FR-T2,57,Raw,2004,,PA,55.15,142.5,147.5,152.5,152.5,77.5,82.5,-85,82.5,112.5,-117.5,-120,112.5,347.5,,
3,Grace Choponis,F,SBD,FR-T2,57,Raw,2004,,MI,56.4,-102.5,-107.5,107.5,107.5,62.5,70,-75,70,127.5,-135,-142.5,127.5,305,,
4,Caralee Suchomel,F,SBD,FR-T2,57,Raw,2003,,WI,56.3,92.5,95,100,100,62.5,65,-70,65,117.5,122.5,130,130,295,,
5,Grace Cunningham,F,SBD,FR-T2,57,Raw,2005,,MN,54.95,102.5,107.5,-112.5,107.5,55,-60,-60,55,112.5,117.5,122.5,122.5,285,,
1,Katherine Cargill,F,SBD,FR-T2,63,Raw,2005,,GA,61.9,110,120,-125,120,62.5,67.5,70,70,137.5,145,-155,145,335,,
2,Mackenzie Montoya,F,SBD,FR-T2,63,Raw,2004,,NV,61.5,100,107.5,115,115,50,57.5,62.5,62.5,127.5,135,140,140,317.5,,
1,Amber Lopez #1,F,SBD,FR-T2,69,Raw,2003,,FL,67.95,145,153,160,160,77.5,82.5,-85,82.5,147.5,152.5,157.5,157.5,400,,
2,Gennie Vitt,F,SBD,FR-T2,69,Raw,2004,,KS,64.65,147.5,162.5,-165,162.5,75,80,-82.5,80,137.5,147.5,-157.5,147.5,390,,
3,Diana Yturbe,F,SBD,FR-T2,69,Raw,2004,,NJ,67.3,122.5,132.5,140,140,62.5,67.5,72.5,72.5,160,177.5,-180,177.5,390,,
4,Giulia Salemme,F,SBD,FR-T2,69,Raw,2004,,CA,66.4,125,130,137.5,137.5,80,82.5,-85,82.5,152.5,162.5,167.5,167.5,387.5,,
5,Scarlette Roberts,F,SBD,FR-T2,69,Raw,2004,,MS,68.95,132.5,-135,-135,132.5,87.5,90,-92.5,90,147.5,152.5,-160,152.5,375,,
6,Eleanor Kaley,F,SBD,FR-T2,69,Raw,2003,,NC,66.85,115,130,140,140,50,57.5,65,65,120,130,137.5,137.5,342.5,,
1,Fayth Analise Ham,F,SBD,FR-T2,76,Raw,2004,Team Rebmann,TX,69.8,130,137.5,142.5,142.5,65,72.5,-82.5,72.5,142.5,155,162.5,162.5,377.5,,
2,Brooke Ruland,F,SBD,FR-T2,76,Raw,2004,,WI,74.25,130,142.5,150,150,65,72.5,-77.5,72.5,132.5,142.5,155,155,377.5,,
3,Grace Anne King,F,SBD,FR-T2,76,Raw,2004,,LA,74.5,115,125,-130,125,55,-60,-60,55,132.5,-147.5,-150,132.5,312.5,,
1,Gianna Howell,F,SBD,FR-T2,84,Raw,2003,,TX,79.55,130,135,140,140,-80,-80,80,80,122.5,127.5,-140,127.5,347.5,,
DQ,Sydney Martin,F,SBD,FR-T2,84,Raw,2004,,ID,83.6,-107.5,-107.5,-107.5,,40,42.5,-45,42.5,102.5,115,120,120,,,
1,Hailey Ryan,F,SBD,FR-T2,84+,Raw,2003,,MI,139,182.5,197.5,210,210,97.5,100,-105,100,182.5,190,200,200,510,,
2,Payton Weelborg,F,SBD,FR-T2,84+,Raw,2004,Hamlin High School,SD,106.55,135,140,-145,140,-77.5,80,85,85,147.5,-152.5,-155,147.5,372.5,,
3,Zakiya Johnson,F,SBD,FR-T2,84+,Raw,2003,,LA,99.2,130,152.5,165,165,52.5,65,-70,65,102.5,117.5,127.5,127.5,357.5,,
1,Ava Allen,F,SBD,FR-T3,43,Raw,2003,,NY,42.25,97.5,102.5,105,105,45,50,55,55,-135,135,145,145,305,,
1,Angelina Spizzieri,F,SBD,FR-T3,52,Raw,2002,,PA,50.72,122.5,127.5,-130,127.5,62.5,65,-67.5,65,140,147.5,150,150,342.5,,
1,Isabella Smith,F,SBD,FR-T3,63,Raw,2001,,TX,61,127.5,132.5,-137.5,132.5,57.5,60,62.5,62.5,135,145,-152.5,145,340,,
2,Hannah Leonard,F,SBD,FR-T3,63,Raw,2002,,WA,60.4,110,-120,-120,110,65,-67.5,67.5,67.5,160,-167.5,-167.5,160,337.5,,
3,Lucy Cao,F,SBD,FR-T3,63,Raw,2003,,IL,58.2,117.5,125,130,130,-67.5,67.5,-72.5,67.5,122.5,130,-137.5,130,327.5,,
4,Margo McCardell,F,SBD,FR-T3,63,Raw,2002,,WY,60.5,107.5,-117.5,-117.5,107.5,-62.5,67.5,-75,67.5,105,-112.5,-122.5,105,280,,
1,Brea Hunter,F,SBD,FR-T3,69,Raw,2002,,IN,68.1,122.5,132.5,-135,132.5,72.5,77.5,82.5,82.5,142.5,155,165,165,380,,
2,Brianna Ungania,F,SBD,FR-T3,69,Raw,2002,,NY,64.75,115,-125,-125,115,60,65,-67.5,65,165,-175,-175,165,345,,
3,Gabi D'Avanzo,F,SBD,FR-T3,69,Raw,2003,,VA,66.65,107.5,115,120,120,70,75,77.5,77.5,137.5,147.5,-152.5,147.5,345,,
4,Olivia Pappadopoulos,F,SBD,FR-T3,69,Raw,2001,,WI,64.75,97.5,-100,100,100,55,60,-65,60,125,137.5,142.5,142.5,302.5,,
1,Angela Kattula,F,SBD,FR-T3,76,Raw,2001,,MI,75.3,155,175,-187.5,175,70,77.5,82.5,82.5,155,172.5,-177.5,172.5,430,,
2,Lydia Frick,F,SBD,FR-T3,76,Raw,2001,,NY,72.85,127.5,135,140,140,57.5,62.5,65,65,127.5,132.5,137.5,137.5,342.5,,
3,Dawanna Crosby,F,SBD,FR-T3,76,Raw,2003,,LA,71.75,82.5,87.5,92.5,92.5,40,42.5,45,45,115,122.5,125,125,262.5,,
1,Briana Bowen,F,SBD,FR-T3,84,Raw,2001,,WI,82.6,115,120,127.5,127.5,65,70,-77.5,70,130,142.5,-162.5,142.5,340,,
1,Caroline Lagarde,F,SBD,F-T1,52,Single-ply,2006,,LA,50.18,95,102.5,107.5,107.5,52.5,57.5,-60,57.5,97.5,105,107.5,107.5,272.5,,
1,Emma Moore,F,SBD,F-T1,57,Single-ply,2005,,LA,54,110,-117.5,-117.5,110,55,60,-62.5,60,115,117.5,-125,117.5,287.5,,
1,Isabel Olivarez,F,SBD,F-T1,63,Single-ply,2005,,TX,61.75,132.5,140,145,145,90,95,-103,95,132.5,140,145,145,385,,
1,Crystal Martinez,F,SBD,F-T1,84+,Single-ply,2005,,TX,93.2,170,185,192.5,192.5,72.5,77.5,80,80,142.5,157.5,165,165,437.5,,
2,Cate Julius,F,SBD,F-T1,84+,Single-ply,2005,,TX,106.36,167.5,180,-190,180,62.5,67.5,72.5,72.5,152.5,165,172.5,172.5,425,,
1,Kaidynce Manuel,F,SBD,F-T2,47,Single-ply,2005,,LA,45.5,-132.5,132.5,140,140,57.5,62.5,67.5,67.5,117.5,127.5,-132.5,127.5,335,,
1,Ashley Villanueva,F,SBD,F-T2,52,Single-ply,2003,Team Rebmann,TX,49.98,122.5,132.5,135,135,75,-80,-80,75,130,142.5,147.5,147.5,357.5,,
2,Maura McLaughlin,F,SBD,F-T2,52,Single-ply,2004,,MS,48.44,95,105,107.5,107.5,60,65,67.5,67.5,100,110,-115,110,285,,
1,Kaitlin Diers,F,SBD,F-T2,57,Single-ply,2004,Team Rebmann,TX,56.28,140,150,157.5,157.5,-55,55,60,60,135,145,150,150,367.5,,
2,Abigail Schuerman,F,SBD,F-T2,57,Single-ply,2004,,WI,56.78,127.5,137.5,145,145,62.5,67.5,70,70,130,140,-147.5,140,355,,
1,Casyn Little,F,SBD,F-T2,63,Single-ply,2004,,TX,61.58,102.5,115,-125,115,50,57.5,-62.5,57.5,102.5,117.5,-125,117.5,290,,
1,Jimisha Thomas,F,SBD,F-T2,69,Single-ply,2004,,MS,65.74,167.5,180,-185,180,-70,70,75,75,175,180,-192.5,180,435,,
2,Angelica Beltran,F,SBD,F-T2,69,Single-ply,2003,,TX,67.88,142.5,152.5,-162.5,152.5,65,70,77.5,77.5,152.5,-165,165,165,395,,
DQ,Kyla McDowell,F,SBD,F-T2,76,Single-ply,2004,Q101 Strength Syndicate,LA,74.25,-132.5,,,,,,,,,,,,,,
1,Karson Oliver,F,SBD,F-T2,84+,Single-ply,2005,,LA,123.16,200,217.5,-227.5,217.5,105,112.5,-120,112.5,160,172.5,-185,172.5,502.5,,
2,Nadia McKay,F,SBD,F-T2,84+,Single-ply,2004,Q101 Strength Syndicate,LA,91,155,170,182.5,182.5,-87.5,-90,92.5,92.5,142.5,152.5,165,165,440,,
1,Alyssa Kirchner,F,SBD,F-T3,52,Single-ply,2002,,MS,51.74,130,135,-140,135,65,70,-72.5,70,130,-137.5,-137.5,130,335,,
1,Criselda Facundo,F,SBD,F-T3,57,Single-ply,2001,,TX,56.46,-175,185,-190,185,-105,105,-115.5,105,175,182.5,-190,182.5,472.5,,
2,Savannah Burke,F,SBD,F-T3,57,Single-ply,2002,Q101 Strength Syndicate,LA,56.72,122.5,-130,130,130,85,87.5,92.5,92.5,122.5,130,-135,130,352.5,,
1,Analysa Munoz,F,SBD,F-T3,63,Single-ply,2002,,TX,59.76,120,-135,-135,120,-62.5,62.5,70,70,132.5,142.5,-147.5,142.5,332.5,,
1,Faith Mayse,F,SBD,F-T3,69,Single-ply,2002,,TX,68.2,102.5,-107.5,107.5,107.5,47.5,50,-62.5,50,120,-135,-135,120,277.5,,
1,Amidy Moreno,F,SBD,F-T3,84,Single-ply,2002,,TX,83.5,192.5,200,-207.5,200,87.5,102.5,107.5,107.5,157.5,170,175,175,482.5,,
1,Brock Munsch,M,SBD,M-JV,53,Single-ply,2005,5500 Powerlifting,LA,52.3,100,110,-117.5,110,67.5,72.5,-82.5,72.5,102.5,112.5,125,125,307.5,,
1,Justin Figueroa,M,SBD,M-JV,59,Single-ply,2005,,TX,58.25,150,-165,165,165,97.5,102.5,110,110,150,172.5,182.5,182.5,457.5,,
2,Canaan Hoosier,M,SBD,M-JV,59,Single-ply,2005,,LA,56.3,-90,97.5,117.5,117.5,70,72.5,-75,72.5,122.5,135,137.5,137.5,327.5,,
1,Ragen Hebert,M,SBD,M-JV,66,Single-ply,2005,5500 Powerlifting,LA,64.3,130,142.5,152.5,152.5,90,97.5,-105,97.5,127.5,140,150,150,400,,
1,Jayson Figueroa,M,SBD,M-JV,74,Single-ply,2006,,TX,70.92,160,175,190,190,95,-107.5,107.5,107.5,160,-175,175,175,472.5,,
2,Logan Winiecki,M,SBD,M-JV,74,Single-ply,2006,,WI,69.34,125,132.5,-137.5,132.5,70,72.5,-80,72.5,147.5,157.5,-167.5,157.5,362.5,,
DQ,Connor Riehl,M,SBD,M-JV,74,Single-ply,2005,,WI,73.28,-170,-195,-195,,105,110,-120,110,187.5,200,-220,200,,,
1,Jaylin Magee,M,SBD,M-JV,83,Single-ply,2005,,LA,82.14,200,215,227.5,227.5,142.5,-147.5,147.5,147.5,222.5,-235,-235,222.5,597.5,,
2,Daniel Trujillo,M,SBD,M-JV,83,Single-ply,2005,,TX,82.92,185,-212.5,-212.5,185,97.5,107.5,-110,107.5,185,205,-212.5,205,497.5,,
3,William Robinson IV,M,SBD,M-JV,83,Single-ply,2005,5500 Powerlifting,LA,80.08,160,175,182.5,182.5,102.5,-112.5,-112.5,102.5,175,192.5,-205,192.5,477.5,,
1,Cael McDaniel,M,SBD,M-JV,105,Single-ply,2006,,LA,101.1,200,-215,-215,200,107.5,117.5,125,125,192.5,197.5,-207.5,197.5,522.5,,
2,John Guidry,M,SBD,M-JV,105,Single-ply,2005,5500 Powerlifting,LA,102,165,182.5,-192.5,182.5,115,125,-130,125,165,-185,-185,165,472.5,,
3,Ty Denges,M,SBD,M-JV,105,Single-ply,2006,,TX,93.9,130,147.5,160,160,72.5,90,95,95,122.5,145,-162.5,145,400,,
1,Kevin Poret,M,SBD,M-JV,120+,Single-ply,2005,5500 Powerlifting,LA,146.1,200,212.5,227.5,227.5,137.5,147.5,-160,147.5,175,187.5,200,200,575,,
1,Stafford Agee,M,SBD,M-V,53,Single-ply,2003,5500 Powerlifting,LA,52.25,182.5,200,-212.5,200,107.5,117.5,125,125,200,-220,-227.5,200,525,,
2,Zachary Montz,M,SBD,M-V,53,Single-ply,2004,,LA,52.55,157.5,170,-177.5,170,77.5,85,90,90,157.5,170,-177.5,170,430,,
3,Nicolas Calidonia,M,SBD,M-V,53,Single-ply,2005,Covington Powerlifting Club,LA,51.4,125,-137.5,137.5,137.5,82.5,92.5,100,100,142.5,-155,155,155,392.5,,
4,Luke Hebert,M,SBD,M-V,53,Single-ply,2005,Vermilion Parish Powerlifting,LA,52.15,95,107.5,117.5,117.5,62.5,67.5,75,75,120,137.5,142.5,142.5,335,,
1,Peter Nguyen #10,M,SBD,M-V,59,Single-ply,2005,Vermilion Parish Powerlifting,LA,58.35,157.5,-172.5,172.5,172.5,87.5,95,100,100,165,182.5,192.5,192.5,465,,
2,Landon Diepenbrock,M,SBD,M-V,59,Single-ply,2003,Covington Powerlifting Club,LA,58.55,160,170,177.5,177.5,107.5,112.5,120,120,157.5,167.5,-177.5,167.5,465,,
3,Jimmy Mao,M,SBD,M-V,59,Single-ply,2004,Vermilion Parish Powerlifting,LA,58.65,145,155,165,165,87.5,95,100,100,147.5,160,-202.5,160,425,,
4,Dawson Randall,M,SBD,M-V,59,Single-ply,2002,Covington Powerlifting Club,LA,58.55,-150,150,-157.5,150,85,-92.5,92.5,92.5,150,160,-182.5,160,402.5,,
1,Joshua Kellum,M,SBD,M-V,66,Single-ply,2004,,LA,63.75,225,250,,250,-132.5,132.5,-155,132.5,207.5,225,,225,607.5,,
2,Jacob Pennington,M,SBD,M-V,66,Single-ply,2004,Covington Powerlifting Club,LA,64.95,170,180,-192.5,180,117.5,-125,125,125,165,-175,180,180,485,,
3,James Marsini,M,SBD,M-V,66,Single-ply,2003,,PA,64.75,185,-200,-200,185,107.5,-117.5,-122.5,107.5,175,190,-200,190,482.5,,
4,Oscar Mercado,M,SBD,M-V,66,Single-ply,2003,,TX,65.35,155,160,-167.5,160,92.5,110,-112.5,110,167.5,175,182.5,182.5,452.5,,
5,Clay Riehl,M,SBD,M-V,66,Single-ply,2003,,WI,63.3,135,147.5,150,150,90,-97.5,-97.5,90,157.5,-182.5,-182.5,157.5,397.5,,
1,Reece Poillion,M,SBD,M-V,74,Single-ply,2003,Covington Powerlifting Club,LA,73.34,210,222.5,227.5,227.5,125,-135,-135,125,-215,215,227.5,227.5,580,,
2,Zach Gardipee,M,SBD,M-V,74,Single-ply,2003,GTown Power,WI,72.06,197.5,210,217.5,217.5,115,117.5,-120,117.5,205,210,215,215,550,,
3,Matthew Youngs,M,SBD,M-V,74,Single-ply,2002,,WI,69.82,195,205,210,210,107.5,112.5,117.5,117.5,192.5,210,-222.5,210,537.5,,
4,Noah Liberski,M,SBD,M-V,74,Single-ply,2003,GTown Power,WI,71.62,-190,-190,190,190,102.5,107.5,-112.5,107.5,172.5,185,197.5,197.5,495,,
5,Kyle Clark #1,M,SBD,M-V,74,Single-ply,2002,,LA,73.44,172.5,177.5,185,185,107.5,-115,117.5,117.5,180,192.5,-200,192.5,495,,
1,Joseph Estopinal,M,SBD,M-V,83,Single-ply,2002,,LA,80.12,240,252.5,265,265,135,142.5,-150,142.5,225,-247.5,247.5,247.5,655,,
2,Joseph Theall,M,SBD,M-V,83,Single-ply,2003,Vermilion Parish Powerlifting,LA,80.48,215,235,252.5,252.5,135,147.5,155,155,227.5,-260,-260,227.5,635,,
3,Chase Lawton,M,SBD,M-V,83,Single-ply,2004,Covington Powerlifting Club,LA,82.44,227.5,-237.5,-237.5,227.5,142.5,157.5,-167.5,157.5,220,230,-252.5,230,615,,
4,Gabe Hoosier,M,SBD,M-V,83,Single-ply,2004,,LA,81.98,210,-225,-227.5,210,-140,140,142.5,142.5,207.5,-227.5,227.5,227.5,580,,
5,Jarrin Foy,M,SBD,M-V,83,Single-ply,2002,,LA,81.56,142.5,157.5,170,170,110,122.5,-140,122.5,172.5,182.5,197.5,197.5,490,,
1,Shelton Jenkins,M,SBD,M-V,93,Single-ply,2003,,LA,86.82,215,220,-232.5,220,177.5,-187.5,187.5,187.5,220,232.5,237.5,237.5,645,,
2,Douglas Ricalde,M,SBD,M-V,93,Single-ply,2005,,LA,91.14,225,245,250,250,150,-160,-160,150,205,-217.5,222.5,222.5,622.5,,
3,Maclain Yahr,M,SBD,M-V,93,Single-ply,2002,GTown Power,WI,89.26,227.5,235,240,240,145,-150,150,150,190,197.5,207.5,207.5,597.5,,
4,Aiden Gelhaar,M,SBD,M-V,93,Single-ply,2003,GTown Power,WI,91.16,170,175,-180,175,85,90,92.5,92.5,162.5,170,175,175,442.5,,
DD,Tyrese Landry,M,SBD,M-V,105,Single-ply,2003,Vermilion Parish Powerlifting,LA,102.72,260,285,300,300,170,182.5,190,190,205,222.5,232.5,232.5,,,
1,Nicholas Eaton,M,SBD,M-V,105,Single-ply,2003,5500 Powerlifting,LA,101.82,237.5,255,267.5,267.5,170,182.5,-187.5,182.5,232.5,252.5,260,260,710,,
2,Chandler Loescher,M,SBD,M-V,105,Single-ply,2004,,LA,101.94,227.5,247.5,-255,247.5,190,205,212.5,212.5,227.5,242.5,250,250,710,,
3,Caleb Pennington,M,SBD,M-V,105,Single-ply,2003,Covington Powerlifting Club,LA,104.24,255,272.5,-282.5,272.5,170,182.5,-197.5,182.5,220,-237.5,-250,220,675,,
4,Elijah Schutz,M,SBD,M-V,105,Single-ply,2004,GTown Power,WI,94.96,247.5,-252.5,252.5,252.5,112.5,-117.5,-117.5,112.5,250,257.5,272.5,272.5,637.5,,
5,Brett Sacia,M,SBD,M-V,105,Single-ply,2004,,WI,103.84,222.5,237.5,-252.5,237.5,105,110,117.5,117.5,222.5,235,-250,235,590,,
6,Nathan Mitchell,M,SBD,M-V,105,Single-ply,2003,Q101 Strength Syndicate,LA,101.58,210,220,227.5,227.5,120,130,140,140,220,-230,-230,220,587.5,,
DQ,Macario Ortlieb,M,SBD,M-V,105,Single-ply,2004,GTown Power,WI,95.68,-192.5,-192.5,-192.5,,-70,70,75,75,170,182.5,192.5,192.5,,,
1,Jace Stewart,M,SBD,M-V,120,Single-ply,2003,5500 Powerlifting,LA,117.9,257.5,272.5,-285,272.5,170,-182.5,-182.5,170,227.5,247.5,272.5,272.5,715,,
2,Charles Jonau,M,SBD,M-V,120,Single-ply,2003,,LA,110.22,225,237.5,250,250,130,137.5,145,145,185,200,212.5,212.5,607.5,,
3,Zack Pisciotta,M,SBD,M-V,120,Single-ply,2003,5500 Powerlifting,LA,112,207.5,225,232.5,232.5,142.5,-150,157.5,157.5,200,217.5,-227.5,217.5,607.5,,
1,Derrick Martin,M,SBD,M-V,120+,Single-ply,2003,5500 Powerlifting,LA,143.76,300,317.5,330,330,200,215,-230,215,227.5,242.5,-255,242.5,787.5,,
2,Emmanuel Powell,M,SBD,M-V,120+,Single-ply,2003,Q101 Strength Syndicate,LA,124.26,290,312.5,322.5,322.5,185,200,-210,200,227.5,240,255,255,777.5,,
3,Bryce Scott,M,SBD,M-V,120+,Single-ply,2003,,LA,156.7,-285,305,-342.5,305,167.5,185,200,200,205,235,260,260,765,,
4,Cru Blanchard,M,SBD,M-V,120+,Single-ply,2003,,LA,166.34,285,317.5,327.5,327.5,185,205,-212.5,205,232.5,-257.5,-257.5,232.5,765,,
5,Caleb Garcia,M,SBD,M-V,120+,Single-ply,2003,Vermilion Parish Powerlifting,LA,136.62,-267.5,280,-297.5,280,160,170,182.5,182.5,227.5,247.5,257.5,257.5,720,,
6,J'Darius Carter,M,SBD,M-V,120+,Single-ply,2002,,LA,162.74,-255,275,-295,275,150,162.5,167.5,167.5,227.5,252.5,257.5,257.5,700,,
7,Clayton Malone,M,SBD,M-V,120+,Single-ply,2003,,LA,135.3,245,262.5,275,275,175,182.5,200,200,200,217.5,-237.5,217.5,692.5,,
8,Jacob Pemberton,M,SBD,M-V,120+,Single-ply,2005,GTown Power,WI,128.7,260,265,267.5,267.5,147.5,-152.5,152.5,152.5,-215,-215,215,215,635,,
G,Liam Mcgrady,M,SBD,MR-G,74,Raw,2004,,WI,73.24,95,102.5,112.5,112.5,62.5,67.5,-72.5,67.5,130,140,150,150,330,,
G,Dallin Robertson,M,SBD,MR-G,83,Raw,2004,,UT,82.9,185,192.5,-205,192.5,-140,142.5,-155,142.5,225,242.5,-250,242.5,577.5,,
G,Jeremiah Wiersma,M,SBD,MR-G,83,Raw,2004,,SD,81.74,115,130,140,140,85,92.5,95,95,155,165,172.5,172.5,407.5,,
G,Daniel Dolenc,M,SBD,MR-G,83,Raw,2006,Cleveland Powerlifting Club,OH,78.8,52.5,62.5,72.5,72.5,30,-47.5,-47.5,30,82.5,87.5,95,95,197.5,,
G,Austin Tackman,M,SBD,MR-G,120,Raw,2003,,WI,107.5,220,227.5,-235,227.5,117.5,-127.5,127.5,127.5,200,210,-222.5,210,565,,
1,Jacob Gaum,M,SBD,MR-JV,53,Raw,2006,,MD,52.15,107.5,115,125,125,65,70,-72.5,70,125,132.5,135,135,330,,
1,Keanu Duel,M,SBD,MR-JV,59,Raw,2005,,WI,57.55,137.5,-142.5,-142.5,137.5,55,57.5,-60,57.5,145,150,157.5,157.5,352.5,,
2,Timothy Story,M,SBD,MR-JV,59,Raw,2005,,WI,57.6,100,112.5,122.5,122.5,65,72.5,-77.5,72.5,127.5,147.5,155,155,350,,
3,Freddy Vizcaya,M,SBD,MR-JV,59,Raw,2004,,SD,57.3,102.5,-110,110,110,67.5,-72.5,-77.5,67.5,120,130,-137.5,130,307.5,,
1,Jack Zittlau,M,SBD,MR-JV,66,Raw,2005,,SD,64.32,132.5,145,-155,145,72.5,77.5,-87.5,77.5,142.5,155,-160,155,377.5,,
2,Kadyn Swenson,M,SBD,MR-JV,66,Raw,2004,,SD,63.84,115,122.5,127.5,127.5,67.5,70,-72.5,70,165,172.5,-182.5,172.5,370,,
3,Prestin Brunette,M,SBD,MR-JV,66,Raw,2004,,WI,64.98,-95,110,-127.5,110,72.5,-77.5,-77.5,72.5,145,152.5,160,160,342.5,,
4,Maxwell Davis,M,SBD,MR-JV,66,Raw,2004,,MA,62.14,112.5,120,-130,120,62.5,-67.5,-67.5,62.5,142.5,147.5,-155,147.5,330,,
5,Grant Brown #2,M,SBD,MR-JV,66,Raw,2005,,WI,64.46,102.5,107.5,115,115,60,65,-67.5,65,120,132.5,142.5,142.5,322.5,,
6,Noah Zahn,M,SBD,MR-JV,66,Raw,2006,,WI,64.92,-85,90,95,95,65,-70,70,70,122.5,127.5,130,130,295,,
7,Danny Suennen,M,SBD,MR-JV,66,Raw,2005,,WI,66,75,-80,-85,75,65,-67.5,-70,65,132.5,137.5,140,140,280,,
1,Samuel Todd,M,SBD,MR-JV,74,Raw,2004,,WI,72.42,150,155,160,160,95,102.5,-112.5,102.5,185,195,205,205,467.5,,
2,Caidan White,M,SBD,MR-JV,74,Raw,2004,,CO,72.84,117.5,132.5,140,140,90,100,-107.5,100,165,-182.5,-182.5,165,405,,
3,Broden Thompson,M,SBD,MR-JV,74,Raw,2005,,NC,68.88,130,147.5,157.5,157.5,80,92.5,97.5,97.5,135,-157.5,-157.5,135,390,,
4,Ashton Post,M,SBD,MR-JV,74,Raw,2006,,WI,67.4,100,-107.5,-115,100,60,65,70,70,140,145,-152.5,145,315,,
1,Renato Barron,M,SBD,MR-JV,83,Raw,2006,,NC,83,190,200,210,210,112.5,117.5,122.5,122.5,192.5,205,220,220,552.5,,
2,Benedict Oliva,M,SBD,MR-JV,83,Raw,2005,,CO,80.54,-195,200,207.5,207.5,97.5,102.5,-107.5,102.5,200,207.5,215,215,525,,
3,Cade Driskell,M,SBD,MR-JV,83,Raw,2005,,KS,80.45,167.5,-177.5,182.5,182.5,105,-110,-110,105,185,195,205,205,492.5,,
4,Bryce Boyer,M,SBD,MR-JV,83,Raw,2005,,WY,77.94,140,152.5,165,165,100,107.5,112.5,112.5,142.5,160,177.5,177.5,455,,
5,Keith Stroud,M,SBD,MR-JV,83,Raw,2006,,TN,81,-155,155,-157.5,155,95,97.5,-100,97.5,-172.5,177.5,180,180,432.5,,
6,Ashton Pike,M,SBD,MR-JV,83,Raw,2004,,WI,75.86,135,142.5,150,150,95,97.5,100,100,150,157.5,-165,157.5,407.5,,
7,James Kingmanjr,M,SBD,MR-JV,83,Raw,2005,,LA,80.96,125,135,145,145,-77.5,77.5,82.5,82.5,147.5,157.5,170,170,397.5,,
8,Marik McKenna,M,SBD,MR-JV,83,Raw,2005,,WI,80.2,97.5,-102.5,-102.5,97.5,55,57.5,-62.5,57.5,145,150,170,170,325,,
9,Gabe Bibawi,M,SBD,MR-JV,83,Raw,2005,,TX,82,102.5,-107.5,107.5,107.5,-67.5,70,75,75,122.5,130,142.5,142.5,325,,
DQ,Joel Scott #4,M,SBD,MR-JV,83,Raw,2004,,TX,78.38,-225,-225,-225,,-120,,,,-235,,,,,,
DQ,Daniel Foley #1,M,SBD,MR-JV,83,Raw,2005,,MD,80.08,125,135,-140,135,75,80,85,85,-185,-185,,,,,
1,Zach Wegner,M,SBD,MR-JV,93,Raw,2005,,WI,89.36,195,207.5,217.5,217.5,132.5,-137.5,-137.5,132.5,190,197.5,207.5,207.5,557.5,,
2,Harrison Gegenhuber,M,SBD,MR-JV,93,Raw,2004,,WI,85.7,172.5,177.5,185,185,105,107.5,-112.5,107.5,192.5,210,227.5,227.5,520,,
3,Brett Alvey,M,SBD,MR-JV,93,Raw,2004,,CO,89.6,180,185,195,195,95,102.5,105,105,185,192.5,-205,192.5,492.5,,
4,Cristopf Atkinson,M,SBD,MR-JV,93,Raw,2006,,WY,89.05,142.5,152.5,162.5,162.5,85,92.5,95,95,175,185,-190,185,442.5,,
5,Chris Pickering,M,SBD,MR-JV,93,Raw,2005,,WY,92.55,122.5,135,-145,135,80,85,-87.5,85,140,152.5,160,160,380,,
6,Draven Edwards,M,SBD,MR-JV,93,Raw,2005,,WI,89.1,117.5,122.5,-132.5,122.5,82.5,-95,95,95,145,150,-160,150,367.5,,
1,Francis O'Malley,M,SBD,MR-JV,105,Raw,2005,,MN,97.5,220,-230,237.5,237.5,145,160,-162.5,160,225,240,250,250,647.5,,
2,Cristhian Rodriguez,M,SBD,MR-JV,105,Raw,2005,,SD,103.05,182.5,192.5,200,200,92.5,-102.5,-102.5,92.5,192.5,-217.5,-217.5,192.5,485,,
3,Christian Koenig,M,SBD,MR-JV,105,Raw,2004,,MN,97,130,142.5,155,155,102.5,112.5,-120,112.5,175,-185,-185,175,442.5,,
1,Logan Gillespie,M,SBD,MR-JV,120,Raw,2005,,WI,105.5,215,-240,240,240,105,110,-115,110,182.5,192.5,202.5,202.5,552.5,,
2,Kevin Rouleau,M,SBD,MR-JV,120,Raw,2006,,NH,116.85,175,187.5,197.5,197.5,125,-137.5,-137.5,125,-210,210,227.5,227.5,550,,
3,Bryce Ruland,M,SBD,MR-JV,120,Raw,2006,,WI,111.05,182.5,192.5,205,205,110,-117.5,117.5,117.5,185,205,222.5,222.5,545,,
4,Asher Vail,M,SBD,MR-JV,120,Raw,2005,,WY,108.9,130,140,150,150,62.5,67.5,72.5,72.5,140,152.5,160,160,382.5,,
1,Benjamin Holmes,M,SBD,MR-JV,120+,Raw,2004,,SD,130.9,195,205,-215,205,100,107.5,-112.5,107.5,200,-212.5,-212.5,200,512.5,,
1,Bodie LaCoe,M,SBD,MR-V,53,Raw,2003,,PA,52.85,150,165,172.5,172.5,87.5,92.5,95,95,212.5,-232.5,-232.5,212.5,480,,
2,Juan Carlos Gonzalez,M,SBD,MR-V,53,Raw,2003,,NE,51.15,80,-87.5,90,90,55,57.5,-60,57.5,137.5,142.5,-150,142.5,290,,
3,Ty Anderson,M,SBD,MR-V,53,Raw,2004,Neenah Powerlifting Club,WI,51.8,82.5,92.5,100,100,47.5,52.5,-55,52.5,117.5,127.5,135,135,287.5,,
4,Hunter Andrews,M,SBD,MR-V,53,Raw,2004,Cleveland Powerlifting Club,OH,48.5,-25,27.5,45,45,-25,-25,25,25,62.5,75,-87.5,75,145,,
1,Nolan Davis,M,SBD,MR-V,59,Raw,2003,,MA,57.9,150,160,165,165,85,90,95,95,160,175,185,185,445,,
2,Caden Taylor,M,SBD,MR-V,59,Raw,2003,,WI,57.85,135,145,155,155,80,87.5,92.5,92.5,172.5,185,-197.5,185,432.5,,
3,Donovan Sinthasomphone,M,SBD,MR-V,59,Raw,2004,,WI,58.25,135,-140,-140,135,75,77.5,80,80,165,177.5,-187.5,177.5,392.5,,
4,Ari Kefer,M,SBD,MR-V,59,Raw,2004,,MD,57.35,120,-125,-127.5,120,72.5,-77.5,-77.5,72.5,-150,150,165,165,357.5,,
5,Colin Stecker,M,SBD,MR-V,59,Raw,2004,,WI,58.05,115,122.5,-130,122.5,62.5,-67.5,-67.5,62.5,130,145,152.5,152.5,337.5,,
6,Cody Duel,M,SBD,MR-V,59,Raw,2004,Winneconne,WI,57.7,107.5,-120,-120,107.5,65,72.5,-77.5,72.5,107.5,115,-125,115,295,,
1,Kevin Serrano #1,M,SBD,MR-V,66,Raw,2002,,IL,65.25,155,162.5,165,165,92.5,100,102.5,102.5,227.5,237.5,242.5,242.5,510,,
2,Gabe Rochette,M,SBD,MR-V,66,Raw,2003,,WA,64.3,-182.5,182.5,-190,182.5,-97.5,97.5,-105,97.5,-227.5,-227.5,227.5,227.5,507.5,,
3,Tommy Connell,M,SBD,MR-V,66,Raw,2005,,NE,65,162.5,172.5,180,180,100,105,110,110,192.5,205,217.5,217.5,507.5,,
4,Joshua Halverson,M,SBD,MR-V,66,Raw,2002,,WI,64.95,167.5,172.5,175,175,92.5,100,-105,100,222.5,230,-237.5,230,505,,
5,Mason Snyder,M,SBD,MR-V,66,Raw,2003,,AZ,65.25,172.5,182.5,187.5,187.5,110,-115,-120,110,187.5,-195,-195,187.5,485,,
6,Jacob Bartelt,M,SBD,MR-V,66,Raw,2004,Winneconne,WI,64.98,160,-172.5,-172.5,160,102.5,107.5,-110,107.5,182.5,192.5,195,195,462.5,,
7,Ryan MacDonell,M,SBD,MR-V,66,Raw,2003,Hamlin High School,SD,65.95,132.5,142.5,147.5,147.5,95,102.5,-105,102.5,187.5,192.5,-197.5,192.5,442.5,,
8,Brady Oleszak,M,SBD,MR-V,66,Raw,2003,,WI,65.5,-145,150,-157.5,150,92.5,97.5,-102.5,97.5,190,-205,-205,190,437.5,,
9,Dylan Sinthasomphone,M,SBD,MR-V,66,Raw,2004,,WI,63.75,140,147.5,155,155,80,85,-87.5,85,165,175,-182.5,175,415,,
10,Cole Randazzo,M,SBD,MR-V,66,Raw,2003,,CT,65.64,137.5,145,150,150,80,-85,-85,80,162.5,172.5,-177.5,172.5,402.5,,
11,Alexander Ghaffari,M,SBD,MR-V,66,Raw,2004,,MD,64.85,130,140,-150,140,100,-107.5,-107.5,100,155,160,-170,160,400,,
12,Nicholas Johnson #3,M,SBD,MR-V,66,Raw,2003,,WI,63.7,125,137.5,140,140,65,75,77.5,77.5,142.5,155,160,160,377.5,,
13,Ryan Haas,M,SBD,MR-V,66,Raw,2003,,WI,61.78,112.5,120,125,125,65,70,75,75,132.5,142.5,155,155,355,,
14,Anthony Gumina,M,SBD,MR-V,66,Raw,2003,,WI,63.56,107.5,115,122.5,122.5,60,65,67.5,67.5,147.5,157.5,160,160,350,,
15,Dayne Laney,M,SBD,MR-V,66,Raw,2006,Elk Mound High School Powerlifting,WI,62.9,100,112.5,122.5,122.5,77.5,-82.5,82.5,82.5,102.5,115,142.5,142.5,347.5,,
16,Yan Barbosa,M,SBD,MR-V,66,Raw,2004,Cleveland Powerlifting Club,OH,62.18,85,92.5,-107.5,92.5,72.5,80,87.5,87.5,100,117.5,127.5,127.5,307.5,,
DQ,Stefan Schultz,M,SBD,MR-V,66,Raw,2003,,TX,64.65,185,195,-200,195,-97.5,-100,-100,,197.5,-210,215,215,,,
1,Brady Flasch,M,SBD,MR-V,74,Raw,2003,,WI,73.15,217.5,222.5,-225,222.5,140,-147.5,-147.5,140,242.5,247.5,-252.5,247.5,610,,
2,McVay Stockwell,M,SBD,MR-V,74,Raw,2002,,LA,73.1,207.5,225,-230,225,120,132.5,-137.5,132.5,225,245,-255,245,602.5,,
3,Clark Whitefield,M,SBD,MR-V,74,Raw,2004,,NY,72.3,182.5,200,207.5,207.5,135,-145,-145,135,205,212.5,230,230,572.5,,
4,Antonio Marrero,M,SBD,MR-V,74,Raw,2003,,NY,73.55,-160,160,175,175,-97.5,105,-107.5,105,-227.5,-242.5,255,255,535,,
5,Julian Saucedo,M,SBD,MR-V,74,Raw,2002,,IL,72.65,147.5,162.5,165,165,107.5,120,-127.5,120,185,192.5,207.5,207.5,492.5,,
6,Sebastian Kempf,M,SBD,MR-V,74,Raw,2004,,WI,72.5,165,175,-185,175,100,107.5,-115,107.5,185,195,-200,195,477.5,,
7,Blake Burlingame,M,SBD,MR-V,74,Raw,2002,Elk Mound High School Powerlifting,WI,69.6,122.5,132.5,140,140,85,90,92.5,92.5,180,197.5,215,215,447.5,,
8,Evan Gonsorcik,M,SBD,MR-V,74,Raw,2003,,MA,72.3,142.5,150,-170,150,90,97.5,-102.5,97.5,200,-217.5,-222.5,200,447.5,,
9,Andrew Coiley,M,SBD,MR-V,74,Raw,2002,Neenah Powerlifting Club,WI,70.65,155,165,175,175,82.5,90,-92.5,90,157.5,165,172.5,172.5,437.5,,
10,Markos Cash,M,SBD,MR-V,74,Raw,2002,,WI,69.15,130,142.5,-152.5,142.5,-92.5,97.5,-107.5,97.5,155,185,195,195,435,,
11,Matthew Nguyen,M,SBD,MR-V,74,Raw,2005,,WI,73.2,145,152.5,157.5,157.5,90,95,97.5,97.5,145,157.5,170,170,425,,
12,Jared White #1,M,SBD,MR-V,74,Raw,2003,,PA,73.26,142.5,155,-157.5,155,80,85,-90,85,165,175,-177.5,175,415,,
13,Jacob MacDonell,M,SBD,MR-V,74,Raw,2003,Hamlin High School,SD,69.3,125,135,-145,135,80,-85,85,85,170,182.5,-192.5,182.5,402.5,,
14,Dante Duncan,M,SBD,MR-V,74,Raw,2004,Full Armour Training Center,CO,73.2,125,132.5,-137.5,132.5,85,-90,-90,85,155,165,-175,165,382.5,,
15,Clayton Thomas,M,SBD,MR-V,74,Raw,2004,,WY,70.84,97.5,110,120,120,-70,72.5,-82.5,72.5,142.5,152.5,157.5,157.5,350,,
DQ,Cole Kleiman,M,SBD,MR-V,74,Raw,2004,,MA,71.9,155,165,-170,165,-107.5,-115,-115,,210,-220,-220,210,,,
DQ,Caden Bealer,M,SBD,MR-V,74,Raw,2004,,LA,72.52,-180,-180,-180,,-87.5,,,,,,,,,,
1,Adam Proben,M,SBD,MR-V,83,Raw,2002,,NC,81.25,235,242.5,-247.5,242.5,137.5,145,152.5,152.5,262.5,275,-280,275,670,,
2,Donavin Spears,M,SBD,MR-V,83,Raw,2002,,OH,81.55,217.5,232.5,-245,232.5,155,162.5,-175,162.5,255,270,-285,270,665,,
3,Logan Bjurstrom,M,SBD,MR-V,83,Raw,2003,,WI,78.95,192.5,202.5,205,205,142.5,-145,-145,142.5,235,245,-255,245,592.5,,
4,Samuel Friedrich,M,SBD,MR-V,83,Raw,2003,,MI,82,205,-220,-220,205,127.5,130,-135,130,232.5,242.5,250,250,585,,
5,Kaiden Oliver,M,SBD,MR-V,83,Raw,2003,,WA,82.1,192.5,205,212.5,212.5,115,120,122.5,122.5,227.5,242.5,250,250,585,,
6,Major Gunderson-Morris,M,SBD,MR-V,83,Raw,2003,Elk Mound High School Powerlifting,WI,79.75,187.5,202.5,-212.5,202.5,97.5,105,112.5,112.5,222.5,242.5,255,255,570,,
7,Carter Hoffman,M,SBD,MR-V,83,Raw,2002,Hamlin High School,SD,76.75,197.5,205,-215,205,127.5,135,-137.5,135,205,217.5,227.5,227.5,567.5,,
8,Michael Goode,M,SBD,MR-V,83,Raw,2002,,KS,82.6,-175,177.5,187.5,187.5,-137.5,137.5,-140,137.5,215,227.5,-235,227.5,552.5,,
9,Noah Mills,M,SBD,MR-V,83,Raw,2003,,MN,81.45,182.5,205,-215,205,-107.5,115,-120,115,197.5,222.5,,222.5,542.5,,
10,Aiden McCarthy,M,SBD,MR-V,83,Raw,2004,,WI,80.9,172.5,182.5,187.5,187.5,105,110,-115,110,220,227.5,237.5,237.5,535,,
11,Ari Prohofsky,M,SBD,MR-V,83,Raw,2003,,MN,78.15,-202.5,207.5,,207.5,120,-122.5,-125,120,187.5,192.5,202.5,202.5,530,,
12,Hayes Anderson,M,SBD,MR-V,83,Raw,2002,,NE,81.75,182.5,-192.5,192.5,192.5,110,-115,-117.5,110,217.5,-230,-230,217.5,520,,
13,Zeph Filer,M,SBD,MR-V,83,Raw,2003,,WY,81.9,180,192.5,202.5,202.5,105,-110,-110,105,197.5,212.5,-222.5,212.5,520,,
14,Ben Anhalt,M,SBD,MR-V,83,Raw,2004,,WI,82.42,175,185,192.5,192.5,107.5,-112.5,-112.5,107.5,202.5,217.5,-222.5,217.5,517.5,,
15,Tyrin Cunningham,M,SBD,MR-V,83,Raw,2004,,LA,78.05,125,152.5,175,175,95,105,112.5,112.5,175,205,227.5,227.5,515,,
16,Jesse Thornton,M,SBD,MR-V,83,Raw,2003,,WY,83,160,172.5,182.5,182.5,-100,102.5,115,115,182.5,195,200,200,497.5,,
17,Dominic Corrente,M,SBD,MR-V,83,Raw,2004,Neenah Powerlifting Club,WI,78.4,147.5,157.5,165,165,-95,95,-102.5,95,197.5,207.5,217.5,217.5,477.5,,
18,Casey Knott,M,SBD,MR-V,83,Raw,2002,,PA,81.58,-137.5,152.5,-160,152.5,105,112.5,-117.5,112.5,197.5,207.5,-227.5,207.5,472.5,,
19,Brannt Balfanz,M,SBD,MR-V,83,Raw,2004,,WI,79.6,-157.5,170,-177.5,170,85,92.5,-97.5,92.5,192.5,200,-210,200,462.5,,
20,Jace Loignon,M,SBD,MR-V,83,Raw,2004,Winneconne,WI,77.12,160,180,-187.5,180,102.5,112.5,-120,112.5,157.5,167.5,-175,167.5,460,,
21,Dylan Johnson #2,M,SBD,MR-V,83,Raw,2004,,WI,76.66,-145,150,-170,150,97.5,102.5,107.5,107.5,162.5,175,190,190,447.5,,
22,Aidan Castro,M,SBD,MR-V,83,Raw,2003,,WY,82.16,125,142.5,145,145,-100,100,-105,100,180,190,-195,190,435,,
23,Brandon Erickson #1,M,SBD,MR-V,83,Raw,2002,,SD,82.52,132.5,140,152.5,152.5,95,105,-110,105,147.5,165,172.5,172.5,430,,
24,Luke Steffen,M,SBD,MR-V,83,Raw,2003,,WI,77.74,155,-162.5,-175,155,95,102.5,-110,102.5,170,-182.5,-182.5,170,427.5,,
25,Dominic Duncan,M,SBD,MR-V,83,Raw,2003,Winneconne,WI,78.8,120,132.5,145,145,-80,82.5,-87.5,82.5,170,185,-187.5,185,412.5,,
26,Jacob Heenan,M,SBD,MR-V,83,Raw,2003,,WI,76.9,152.5,155,167.5,167.5,70,77.5,-82.5,77.5,155,-165,-165,155,400,,
27,Patrick Crowell,M,SBD,MR-V,83,Raw,2002,Cleveland Powerlifting Club,OH,79.7,100,105,110,110,95,100,105,105,170,182.5,-192.5,182.5,397.5,,
28,Martin Romero,M,SBD,MR-V,83,Raw,2003,Cleveland Powerlifting Club,OH,80.25,100,105,-110,105,72.5,75,77.5,77.5,165,182.5,-187.5,182.5,365,,
1,Jalen Faulk,M,SBD,MR-V,93,Raw,2003,,SC,92.46,237.5,245,255,255,157.5,165,-175,165,260,275,290,290,710,,
2,Mitchell Jones #1,M,SBD,MR-V,93,Raw,2003,,NC,92.28,222.5,232.5,237.5,237.5,135,140,142.5,142.5,270,290,-300,290,670,,
3,Benjamin Pendley,M,SBD,MR-V,93,Raw,2002,,GA,89.46,-250,252.5,260,260,132.5,137.5,-142.5,137.5,257.5,270,-277.5,270,667.5,,
4,Justin Blechinger,M,SBD,MR-V,93,Raw,2003,,WI,87.3,205,212.5,220,220,142.5,150,157.5,157.5,260,272.5,-277.5,272.5,650,,
5,Ethan Yodanza,M,SBD,MR-V,93,Raw,2002,,LA,88.15,200,220,227.5,227.5,142.5,152.5,-157.5,152.5,235,252.5,265,265,645,,
6,Adam Viramontes,M,SBD,MR-V,93,Raw,2003,,CA,92.2,190,210,230,230,185,-202.5,-202.5,185,200,215,-230,215,630,,
7,Max Marohl,M,SBD,MR-V,93,Raw,2003,,WI,87.76,205,220,230,230,125,132.5,137.5,137.5,240,252.5,-260,252.5,620,,
8,Drew Cargill,M,SBD,MR-V,93,Raw,2002,,GA,91.4,205,-220,-220,205,150,155,162.5,162.5,240,250,-255,250,617.5,,
9,Peter Sjoberg,M,SBD,MR-V,93,Raw,2002,,VA,89.8,-195,202.5,212.5,212.5,115,122.5,127.5,127.5,247.5,262.5,272.5,272.5,612.5,,
10,Tyler Keller,M,SBD,MR-V,93,Raw,2005,,LA,89.85,-210,-227.5,227.5,227.5,102.5,125,-132.5,125,235,257.5,260,260,612.5,,
11,Slade Irvine,M,SBD,MR-V,93,Raw,2002,,MN,88.88,207.5,215,220,220,142.5,-150,-150,142.5,227.5,245,-255,245,607.5,,
12,Christian Kreegel,M,SBD,MR-V,93,Raw,2003,,FL,91.26,-187.5,187.5,205,205,-137.5,145,-150,145,227.5,242.5,252.5,252.5,602.5,,
13,Mitchel Gamache,M,SBD,MR-V,93,Raw,2004,,WI,91.1,192.5,202.5,-220,202.5,150,160,-170,160,217.5,235,-250,235,597.5,,
14,Peyton Mitties,M,SBD,MR-V,93,Raw,2003,,NE,89.36,-200,210,-225,210,105,117.5,-127.5,117.5,227.5,260,-272.5,260,587.5,,
15,Ari Kutin,M,SBD,MR-V,93,Raw,2003,,NJ,90.34,212.5,-222.5,-222.5,212.5,112.5,117.5,-120,117.5,245,257.5,-265,257.5,587.5,,
16,Sam Sikora,M,SBD,MR-V,93,Raw,2002,,IL,90.8,187.5,200,210,210,115,125,135,135,190,202.5,215,215,560,,
17,Mason Mitchell,M,SBD,MR-V,93,Raw,2004,,WI,86.56,185,192.5,-202.5,192.5,142.5,155,160,160,185,197.5,202.5,202.5,555,,
18,Aidan Gollan,M,SBD,MR-V,93,Raw,2003,,MI,90.06,177.5,190,192.5,192.5,125,127.5,130,130,205,215,220,220,542.5,,
19,Joseph DeDomenico,M,SBD,MR-V,93,Raw,2003,,CT,90.3,-187.5,187.5,-195,187.5,122.5,125,127.5,127.5,205,215,227.5,227.5,542.5,,
20,Kyle Lopez,M,SBD,MR-V,93,Raw,2003,,CA,85.54,190,-195,197.5,197.5,112.5,-122.5,-130,112.5,215,222.5,230,230,540,,
21,Brady Bjurstrom,M,SBD,MR-V,93,Raw,2004,,WI,87.9,177.5,187.5,195,195,105,112.5,-115,112.5,210,217.5,227.5,227.5,535,,
22,Jonah Wiersma,M,SBD,MR-V,93,Raw,2003,,SD,85.15,175,185,-190,185,110,117.5,122.5,122.5,185,192.5,205,205,512.5,,
23,Cesar Garcia,M,SBD,MR-V,93,Raw,2004,,NE,89.95,202.5,205,207.5,207.5,85,87.5,90,90,-207.5,207.5,212.5,212.5,510,,
24,Madhuran Selvaa,M,SBD,MR-V,93,Raw,2004,,TX,92.85,185,-192.5,192.5,192.5,97.5,-105,105,105,190,205,-217.5,205,502.5,,
25,Christopher Collins Jr,M,SBD,MR-V,93,Raw,2002,,OH,92.1,215,-245,-245,215,-97.5,117.5,125,125,160,-162.5,-162.5,160,500,,
26,Logan Paris,M,SBD,MR-V,93,Raw,2004,,WI,83.5,157.5,167.5,-190,167.5,102.5,115,-120,115,170,197.5,205,205,487.5,,
27,Gabriel Moschkau,M,SBD,MR-V,93,Raw,2003,Elk Mound High School Powerlifting,WI,91.6,162.5,172.5,185,185,95,102.5,107.5,107.5,162.5,172.5,180,180,472.5,,
28,Finn Seaborg,M,SBD,MR-V,93,Raw,2004,,WI,83.7,165,-175,-177.5,165,-90,95,102.5,102.5,180,187.5,-200,187.5,455,,
29,Xander Sheehan,M,SBD,MR-V,93,Raw,2004,Hamlin High School,SD,85.2,137.5,152.5,160,160,102.5,107.5,112.5,112.5,167.5,175,-185,175,447.5,,
30,Ashton Shehow,M,SBD,MR-V,93,Raw,2003,,WI,92.45,157.5,160,-165,160,97.5,102.5,105,105,172.5,180,-187.5,180,445,,
31,Oscar Wald,M,SBD,MR-V,93,Raw,2003,Elk Mound High School Powerlifting,WI,85.05,145,155,-165,155,97.5,102.5,105,105,162.5,172.5,182.5,182.5,442.5,,
32,Anthony Balistreri,M,SBD,MR-V,93,Raw,2002,,WI,83.55,97.5,107.5,115,115,85,-90,-90,85,157.5,165,-175,165,365,,
1,Richard Beckley,M,SBD,MR-V,105,Raw,2004,,OH,102.55,227.5,240,250,250,-142.5,147.5,152.5,152.5,287.5,310,317.5,317.5,720,,
2,Luke Miles,M,SBD,MR-V,105,Raw,2003,Team Rebmann,TX,103.55,225,237.5,250,250,137.5,145,150,150,290,305,320,320,720,,
3,Camden Good,M,SBD,MR-V,105,Raw,2003,,VA,102.8,220,240,250,250,165,167.5,177.5,177.5,267.5,285,-300,285,712.5,,
4,Tyler Quesinberry,M,SBD,MR-V,105,Raw,2003,,NC,96.35,235,-247.5,257.5,257.5,-167.5,177.5,-187.5,177.5,245,260,-275,260,695,,
5,William Spencer #1,M,SBD,MR-V,105,Raw,2003,,NC,101.9,212.5,222.5,-227.5,222.5,155,157.5,160,160,252.5,267.5,-275,267.5,650,,
6,Carter Trowbridge,M,SBD,MR-V,105,Raw,2002,Hamlin High School,SD,100.85,235,247.5,-255,247.5,147.5,-157.5,-157.5,147.5,240,250,-255,250,645,,
7,Josh Lescohier,M,SBD,MR-V,105,Raw,2002,,WI,100.6,232.5,242.5,-247.5,242.5,145,147.5,-150,147.5,247.5,-257.5,-260,247.5,637.5,,
8,Sam Stoeckmann,M,SBD,MR-V,105,Raw,2004,,WI,101.5,-200,217.5,227.5,227.5,-125,135,145,145,172.5,185,200,200,572.5,,
9,Garet Porter,M,SBD,MR-V,105,Raw,2002,,WY,98.4,-150,150,167.5,167.5,-102.5,107.5,-115,107.5,220,240,252.5,252.5,527.5,,
10,Ryder Mack,M,SBD,MR-V,105,Raw,2003,,SD,99.05,175,185,190,190,102.5,112.5,-115,112.5,185,205,-212.5,205,507.5,,
11,Maddox Schaaf,M,SBD,MR-V,105,Raw,2003,,WI,102.85,182.5,190,200,200,100,102.5,107.5,107.5,182.5,-190,200,200,507.5,,
12,Jackson Nei,M,SBD,MR-V,105,Raw,2004,,SD,94.6,145,165,175,175,-102.5,110,-115,110,185,197.5,207.5,207.5,492.5,,
13,Felix Vasquez,M,SBD,MR-V,105,Raw,2002,Cleveland Powerlifting Club,OH,100.2,-115,115,122.5,122.5,75,82.5,-92.5,82.5,142.5,150,170,170,375,,
DQ,Charlie Nance,M,SBD,MR-V,105,Raw,2004,,LA,102.85,-200,-200,-200,,,,,,,,,,,,
1,Benjamin Prasko,M,SBD,MR-V,120,Raw,2003,Neenah Powerlifting Club,WI,116.45,242.5,260,-275,260,107.5,115,120,120,242.5,260,272.5,272.5,652.5,,
2,Seth Haug,M,SBD,MR-V,120,Raw,2002,,LA,106.35,230,237.5,-247.5,237.5,115,122.5,130,130,210,222.5,232.5,232.5,600,,
3,Christian Lezinski,M,SBD,MR-V,120,Raw,2003,,PA,116.8,185,202.5,212.5,212.5,135,140,142.5,142.5,227.5,242.5,-252.5,242.5,597.5,,
4,Matthew Schraith,M,SBD,MR-V,120,Raw,2003,,WI,108.75,195,205,215,215,110,120,125,125,235,250,-262.5,250,590,,
5,Cameron Anderson #3,M,SBD,MR-V,120,Raw,2003,,WI,117.65,205,-232.5,232.5,232.5,120,130,-147.5,130,170,190,200,200,562.5,,
6,Reese Brunner,M,SBD,MR-V,120,Raw,2002,Elk Mound High School Powerlifting,WI,114.45,147.5,157.5,172.5,172.5,97.5,102.5,110,110,225,250,265,265,547.5,,
7,Raiden Miyashiro,M,SBD,MR-V,120,Raw,2003,,TX,118.65,192.5,205,215,215,120,130,-140,130,187.5,192.5,-200,192.5,537.5,,
8,Santino Lentini,M,SBD,MR-V,120,Raw,2004,,WI,114,197.5,212.5,217.5,217.5,107.5,-112.5,-112.5,107.5,210,-227.5,-237.5,210,535,,
9,Carlos Enriquez,M,SBD,MR-V,120,Raw,2004,,WY,110.15,172.5,185,197.5,197.5,110,117.5,127.5,127.5,190,-210,-225,190,515,,
10,Brady Drew,M,SBD,MR-V,120,Raw,2002,Hamlin High School,SD,110.15,-157.5,170,195,195,100,105,110,110,182.5,210,-230,210,515,,
11,Brennan Schmeling,M,SBD,MR-V,120,Raw,2003,,WI,115.05,197.5,212.5,-217.5,212.5,105,110,-127.5,110,192.5,-200,-200,192.5,515,,
1,Jacob Regan,M,SBD,MR-V,120+,Raw,2004,,WI,141.8,212.5,220,235,235,122.5,132.5,-137.5,132.5,260,282.5,-302.5,282.5,650,,
2,Ryker Sharp,M,SBD,MR-V,120+,Raw,2004,,VA,141.1,177.5,190,205,205,130,137.5,147.5,147.5,210,222.5,230,230,582.5,,
3,Gordon Langer,M,SBD,MR-V,120+,Raw,2004,,WI,167.4,182.5,215,-250,215,102.5,-117.5,117.5,117.5,205,227.5,-252.5,227.5,560,,
4,Brennen Bailey,M,SBD,MR-V,120+,Raw,2004,,OH,145.05,172.5,182.5,192.5,192.5,110,117.5,122.5,122.5,192.5,202.5,207.5,207.5,522.5,,
5,Tyler Macon,M,SBD,MR-V,120+,Raw,2003,,WY,120.6,150,172.5,-177.5,172.5,85,95,100,100,157.5,187.5,192.5,192.5,465,,
1,Jacob Gaum,M,SBD,MR-T1,53,Raw,2006,,MD,52.15,107.5,115,125,125,65,70,-72.5,70,125,132.5,135,135,330,,
2,Wiley Philleo,M,SBD,MR-T1,53,Raw,2007,,WY,52.45,90,97.5,-105,97.5,50,55,-60,55,97.5,107.5,120,120,272.5,,
1,Sawyer Trowbridge,M,SBD,MR-T1,59,Raw,2006,,SD,57.35,97.5,105,120,120,60,65,-77.5,65,135,145,-155,145,330,,
2,Bennett Mione,M,SBD,MR-T1,59,Raw,2006,,CO,53.95,70,82.5,-95,82.5,55,62.5,-67.5,62.5,25,-27.5,,25,170,,
1,Cash Bustos,M,SBD,MR-T1,66,Raw,2007,Full Armour Training Center,CO,63.96,95,102.5,107.5,107.5,65,-70,70,70,120,130,-137.5,130,307.5,,
2,Noah Zahn,M,SBD,MR-T1,66,Raw,2006,,WI,64.92,-85,90,95,95,65,-70,70,70,122.5,127.5,130,130,295,,
1,Brian Byrd,M,SBD,MR-T1,74,Raw,2005,,NC,71.92,165,170,172.5,172.5,85,-92.5,-92.5,85,175,182.5,187.5,187.5,445,,
2,Broden Thompson,M,SBD,MR-T1,74,Raw,2005,,NC,68.88,130,147.5,157.5,157.5,80,92.5,97.5,97.5,135,-157.5,-157.5,135,390,,
1,Jakweli Gist,M,SBD,MR-T1,83,Raw,2005,,MO,80.7,190,210,227.5,227.5,137.5,147.5,-150,147.5,215,235,242.5,242.5,617.5,2005-11-16,
2,Nathan Drivas,M,SBD,MR-T1,83,Raw,2005,,WI,80.32,190,195,202.5,202.5,-130,135,-145,135,210,220,230,230,567.5,,15
3,Renato Barron,M,SBD,MR-T1,83,Raw,2006,,NC,83,190,200,210,210,112.5,117.5,122.5,122.5,192.5,205,220,220,552.5,,
4,Cole Lewis,M,SBD,MR-T1,83,Raw,2006,,FL,80.68,160,162.5,180,180,90,-97.5,-105,90,210,230,-252.5,230,500,,
5,Sam Harvey #2,M,SBD,MR-T1,83,Raw,2005,,PA,80.62,145,157.5,170,170,95,105,115,115,165,185,195,195,480,,
6,Keith Stroud,M,SBD,MR-T1,83,Raw,2006,,TN,81,-155,155,-157.5,155,95,97.5,-100,97.5,-172.5,177.5,180,180,432.5,,
7,Sam Kooima,M,SBD,MR-T1,83,Raw,2006,,SD,75.64,130,137.5,-142.5,137.5,90,95,100,100,170,175,180,180,417.5,,
8,Gabe Bibawi,M,SBD,MR-T1,83,Raw,2005,,TX,82,102.5,-107.5,107.5,107.5,-67.5,70,75,75,122.5,130,142.5,142.5,325,,
DQ,Daniel Foley #1,M,SBD,MR-T1,83,Raw,2005,,MD,80.08,125,135,-140,135,75,80,85,85,-185,-185,,,,,
1,Francis O'Malley,M,SBD,MR-T1,105,Raw,2005,,MN,97.5,220,-230,237.5,237.5,145,160,-162.5,160,225,240,250,250,647.5,,
1,Kevin Rouleau,M,SBD,MR-T1,120,Raw,2006,,NH,116.85,175,187.5,197.5,197.5,125,-137.5,-137.5,125,-210,210,227.5,227.5,550,,
2,Bryce Ruland,M,SBD,MR-T1,120,Raw,2006,,WI,111.05,182.5,192.5,205,205,110,-117.5,117.5,117.5,185,205,222.5,222.5,545,,
1,Manny Walia,M,SBD,MR-T2,53,Raw,2004,,GA,52.65,115,-122.5,-122.5,115,70,77.5,-82.5,77.5,130,-145,-145,130,322.5,,
1,Caden Taylor,M,SBD,MR-T2,59,Raw,2003,,WI,57.85,135,145,155,155,80,87.5,92.5,92.5,172.5,185,-197.5,185,432.5,,
2,Nicholas Kurtz,M,SBD,MR-T2,59,Raw,2003,,MN,58.15,137.5,145,-150,145,72.5,82.5,85,85,155,160,167.5,167.5,397.5,,
3,Ari Kefer,M,SBD,MR-T2,59,Raw,2004,,MD,57.35,120,-125,-127.5,120,72.5,-77.5,-77.5,72.5,-150,150,165,165,357.5,,
4,Colin Stecker,M,SBD,MR-T2,59,Raw,2004,,WI,58.05,115,122.5,-130,122.5,62.5,-67.5,-67.5,62.5,130,145,152.5,152.5,337.5,,
1,Alan Chan #2,M,SBD,MR-T2,66,Raw,2003,,IL,65,185,195,202.5,202.5,-100,102.5,107.5,107.5,195,205,215,215,525,,
2,Austin Nikolai,M,SBD,MR-T2,66,Raw,2003,,WI,62.05,185,192.5,-197.5,192.5,100,105,107.5,107.5,195,-212.5,-212.5,195,495,,
3,Aidan Taylor,M,SBD,MR-T2,66,Raw,2005,,IL,64.6,150,160,165,165,95,-100,100,100,192.5,200,205,205,470,,
4,Alexander Ghaffari,M,SBD,MR-T2,66,Raw,2004,,MD,64.85,130,140,-150,140,100,-107.5,-107.5,100,155,160,-170,160,400,,
DQ,Jack Zittlau,M,SBD,MR-T2,66,Raw,2005,,SD,62.9,-100,-100,-100,,-77.5,,,,,,,,,,
DQ,Stefan Schultz,M,SBD,MR-T2,66,Raw,2003,,TX,64.65,185,195,-200,195,-97.5,-100,-100,,197.5,-210,215,215,,,
1,Clark Whitefield,M,SBD,MR-T2,74,Raw,2004,,NY,72.3,182.5,200,207.5,207.5,135,-145,-145,135,205,212.5,230,230,572.5,,
2,Malcom Lindsey,M,SBD,MR-T2,74,Raw,2004,,TX,72.1,170,-180,182.5,182.5,-125,130,,130,207.5,217.5,-227.5,217.5,530,,
3,Jackson Berndt,M,SBD,MR-T2,74,Raw,2004,,WI,70.2,187.5,197.5,202.5,202.5,95,100,102.5,102.5,200,210,217.5,217.5,522.5,,
4,Jon Burchette,M,SBD,MR-T2,74,Raw,2003,,NH,73.5,160,-170,-170,160,95,100,105,105,177.5,185,-200,185,450,,
5,Dante Duncan,M,SBD,MR-T2,74,Raw,2004,Full Armour Training Center,CO,73.2,125,132.5,-137.5,132.5,85,-90,-90,85,155,165,-175,165,382.5,,
DQ,Cole Kleiman,M,SBD,MR-T2,74,Raw,2004,,MA,71.9,155,165,-170,165,-107.5,-115,-115,,210,-220,-220,210,,,
1,Paul Acosta,M,SBD,MR-T2,83,Raw,2003,,TX,82.4,207.5,220,-227.5,220,115,120,125,125,240,252.5,265,265,610,,
2,Samuel Friedrich,M,SBD,MR-T2,83,Raw,2003,,MI,82,205,-220,-220,205,127.5,130,-135,130,232.5,242.5,250,250,585,,
3,Kaiden Oliver,M,SBD,MR-T2,83,Raw,2003,,WA,82.1,192.5,205,212.5,212.5,115,120,122.5,122.5,227.5,242.5,250,250,585,,
4,Major Gunderson-Morris,M,SBD,MR-T2,83,Raw,2003,Elk Mound High School Powerlifting,WI,79.75,187.5,202.5,-212.5,202.5,97.5,105,112.5,112.5,222.5,242.5,255,255,570,,
5,Jenson Taylor,M,SBD,MR-T2,83,Raw,2003,,GA,81.3,195,-205,-205,195,135,137.5,-140,137.5,210,225,232.5,232.5,565,,
6,Dean Ippolito,M,SBD,MR-T2,83,Raw,2003,,NJ,80.1,170,182.5,192.5,192.5,107.5,117.5,-127.5,117.5,220,235,245,245,555,,
7,Noah Mills,M,SBD,MR-T2,83,Raw,2003,,MN,81.45,182.5,205,-215,205,-107.5,115,-120,115,197.5,222.5,,222.5,542.5,,
8,Aiden McCarthy,M,SBD,MR-T2,83,Raw,2004,,WI,80.9,172.5,182.5,187.5,187.5,105,110,-115,110,220,227.5,237.5,237.5,535,,
9,Joshua Miller,M,SBD,MR-T2,83,Raw,2003,,TX,81.25,152.5,162.5,167.5,167.5,110,117.5,120,120,210,225,240,240,527.5,,
10,Tyrin Cunningham,M,SBD,MR-T2,83,Raw,2004,,LA,78.05,125,152.5,175,175,95,105,112.5,112.5,175,205,227.5,227.5,515,,
11,Adrian Cristian-Fernandez,M,SBD,MR-T2,83,Raw,2003,,NY,81.8,-165,165,177.5,177.5,100,105,-115,105,202.5,212.5,-225,212.5,495,,
12,Ace Cathcart,M,SBD,MR-T2,83,Raw,2004,,WY,80.65,165,-180,-190,165,102.5,110,-115,110,182.5,195,200,200,475,,
13,Jace Loignon,M,SBD,MR-T2,83,Raw,2004,Winneconne,WI,77.12,160,180,-187.5,180,102.5,112.5,-120,112.5,157.5,167.5,-175,167.5,460,,
14,Luke Steffen,M,SBD,MR-T2,83,Raw,2003,,WI,77.74,155,-162.5,-175,155,95,102.5,-110,102.5,170,-182.5,-182.5,170,427.5,,
15,Ross Larrabee,M,SBD,MR-T2,83,Raw,2004,,UT,80.25,-132.5,137.5,142.5,142.5,87.5,-95,-95,87.5,175,185,-192.5,185,415,,
1,Jalen Faulk,M,SBD,MR-T2,93,Raw,2003,,SC,92.46,237.5,245,255,255,157.5,165,-175,165,260,275,290,290,710,,
2,Mitchell Jones #1,M,SBD,MR-T2,93,Raw,2003,,NC,92.28,222.5,232.5,237.5,237.5,135,140,142.5,142.5,270,290,-300,290,670,,
3,Adam Viramontes,M,SBD,MR-T2,93,Raw,2003,,CA,92.2,190,210,230,230,185,-202.5,-202.5,185,200,215,-230,215,630,,
4,Max Marohl,M,SBD,MR-T2,93,Raw,2003,,WI,87.76,205,220,230,230,125,132.5,137.5,137.5,240,252.5,-260,252.5,620,,
5,Christian Kreegel,M,SBD,MR-T2,93,Raw,2003,,FL,91.26,-187.5,187.5,205,205,-137.5,145,-150,145,227.5,242.5,252.5,252.5,602.5,,
6,Nicholas Fuller,M,SBD,MR-T2,93,Raw,2004,,LA,89.28,190,197.5,202.5,202.5,145,-147.5,-147.5,145,225,237.5,250,250,597.5,,
7,Kai DeVoe-Talluto,M,SBD,MR-T2,93,Raw,2004,,VT,87.24,-177.5,-190,197.5,197.5,130,140,147.5,147.5,220,237.5,-247.5,237.5,582.5,,
8,Mason Mitchell,M,SBD,MR-T2,93,Raw,2004,,WI,86.56,185,192.5,-202.5,192.5,142.5,155,160,160,185,197.5,202.5,202.5,555,,
9,Aidan Gollan,M,SBD,MR-T2,93,Raw,2003,,MI,90.06,177.5,190,192.5,192.5,125,127.5,130,130,205,215,220,220,542.5,,
10,Brady Bjurstrom,M,SBD,MR-T2,93,Raw,2004,,WI,87.9,177.5,187.5,195,195,105,112.5,-115,112.5,210,217.5,227.5,227.5,535,,
11,Madhuran Selvaa,M,SBD,MR-T2,93,Raw,2004,,TX,92.85,185,-192.5,192.5,192.5,97.5,-105,105,105,190,205,-217.5,205,502.5,,
12,Xander Sheehan,M,SBD,MR-T2,93,Raw,2004,Hamlin High School,SD,85.2,137.5,152.5,160,160,102.5,107.5,112.5,112.5,167.5,175,-185,175,447.5,,
1,Camden Good,M,SBD,MR-T2,105,Raw,2003,,VA,102.8,220,240,250,250,165,167.5,177.5,177.5,267.5,285,-300,285,712.5,,
2,Carson LaBarre,M,SBD,MR-T2,105,Raw,2003,,VT,102.6,217.5,235,242.5,242.5,137.5,150,152.5,152.5,247.5,265,280,280,675,,
3,Sam Stoeckmann,M,SBD,MR-T2,105,Raw,2004,,WI,101.5,-200,217.5,227.5,227.5,-125,135,145,145,172.5,185,200,200,572.5,,
4,Carson Delander,M,SBD,MR-T2,105,Raw,2004,,WI,102,195,205,212.5,212.5,120,125,127.5,127.5,207.5,217.5,-227.5,217.5,557.5,,
5,Ryder Mack,M,SBD,MR-T2,105,Raw,2003,,SD,99.05,175,185,190,190,102.5,112.5,-115,112.5,185,205,-212.5,205,507.5,,
DQ,Samuel Fluke,M,SBD,MR-T2,105,Raw,2003,,PA,98.2,-260,-260,-260,,152.5,157.5,-162.5,157.5,220,225,240,240,,,
1,Christian Lezinski,M,SBD,MR-T2,120,Raw,2003,,PA,116.8,185,202.5,212.5,212.5,135,140,142.5,142.5,227.5,242.5,-252.5,242.5,597.5,,
2,Matthew Schraith,M,SBD,MR-T2,120,Raw,2003,,WI,108.75,195,205,215,215,110,120,125,125,235,250,-262.5,250,590,,
3,Carlos Enriquez,M,SBD,MR-T2,120,Raw,2004,,WY,110.15,172.5,185,197.5,197.5,110,117.5,127.5,127.5,190,-210,-225,190,515,,
1,Joseph Davidman,M,SBD,MR-T2,120+,Raw,2004,,NJ,147.2,245,265,275,275,-120,120,130,130,215,235,-245,235,640,,
2,Ryker Sharp,M,SBD,MR-T2,120+,Raw,2004,,VA,141.1,177.5,190,205,205,130,137.5,147.5,147.5,210,222.5,230,230,582.5,,
3,Camden Nordeen,M,SBD,MR-T2,120+,Raw,2003,,WI,158.3,182.5,200,210,210,110,125,-130,125,197.5,215,222.5,222.5,557.5,,
4,Brennen Bailey,M,SBD,MR-T2,120+,Raw,2004,,OH,145.05,172.5,182.5,192.5,192.5,110,117.5,122.5,122.5,192.5,202.5,207.5,207.5,522.5,,
1,Aidan Cusack,M,SBD,MR-T3,53,Raw,2001,,TX,52.4,147.5,-157.5,-157.5,147.5,87.5,92.5,-95,92.5,165,175,182.5,182.5,422.5,,
1,Cheemeng Lor,M,SBD,MR-T3,59,Raw,2002,,OK,58.2,170,177.5,-182.5,177.5,102.5,107.5,110,110,170,180,187.5,187.5,475,,
2,Kwaku Nyarko,M,SBD,MR-T3,59,Raw,2002,,MA,57.75,145,155,160,160,95,102.5,-105,102.5,180,195,200,200,462.5,,
3,Robert Cardoza,M,SBD,MR-T3,59,Raw,2003,,NE,58.55,157.5,-162.5,-162.5,157.5,95,100,-102.5,100,190,-200,-202.5,190,447.5,,
4,Arian Queriman,M,SBD,MR-T3,59,Raw,2003,,TX,59,160,170,-175,170,80,85,90,90,155,170,-185,170,430,,
DQ,Ethan Diederich,M,SBD,MR-T3,59,Raw,2001,,WI,57.45,-147.5,-162.5,-162.5,,-87.5,-95,-95,,-157.5,157.5,,157.5,,,
1,Carson Bowler,M,SBD,MR-T3,66,Raw,2001,,IL,65.4,192.5,205,210,210,125,130,132.5,132.5,235,-247.5,247.5,247.5,590,,
2,Keven Nguyen,M,SBD,MR-T3,66,Raw,2001,,TX,64.7,215,225,-230,225,110,117.5,-120,117.5,215,237.5,-245,237.5,580,,
3,Matt Foddrill,M,SBD,MR-T3,66,Raw,2002,,MI,65,-190,192.5,-200,192.5,125,-130,-130,125,220,227.5,-232.5,227.5,545,,
4,Kendall Foster,M,SBD,MR-T3,66,Raw,2002,,ID,64.55,175,182.5,-187.5,182.5,122.5,127.5,-132.5,127.5,205,-210,-210,205,515,,
5,Sam Weisman,M,SBD,MR-T3,66,Raw,2003,,NY,63.45,172.5,180,185,185,117.5,-125,-125,117.5,-207.5,-207.5,210,210,512.5,,
6,Kevin Serrano #1,M,SBD,MR-T3,66,Raw,2002,,IL,65.25,155,162.5,165,165,92.5,100,102.5,102.5,227.5,237.5,242.5,242.5,510,,
7,Gabe Rochette,M,SBD,MR-T3,66,Raw,2003,,WA,64.3,-182.5,182.5,-190,182.5,-97.5,97.5,-105,97.5,-227.5,-227.5,227.5,227.5,507.5,,
8,Isaiah Pesata,M,SBD,MR-T3,66,Raw,2001,,NM,65.05,165,177.5,187.5,187.5,90,-97.5,100,100,200,215,-222.5,215,502.5,,
9,Mason Snyder,M,SBD,MR-T3,66,Raw,2003,,AZ,65.25,172.5,182.5,187.5,187.5,110,-115,-120,110,187.5,-195,-195,187.5,485,,
10,Jared Ali,M,SBD,MR-T3,66,Raw,2001,,TX,64,145,155,162.5,162.5,82.5,92.5,-95,92.5,175,200,212.5,212.5,467.5,,
11,Samuel Insall,M,SBD,MR-T3,66,Raw,2003,,MO,63.95,160,-165,-170,160,97.5,100,-105,100,185,195,-205,195,455,,
1,Jacob Waltzer,M,SBD,MR-T3,74,Raw,2002,,MD,72.85,205,217.5,227.5,227.5,132.5,137.5,-145,137.5,265,275,285,285,650,,
2,Ky-Vinh Nguyen,M,SBD,MR-T3,74,Raw,2002,,GA,73.15,205,220,227.5,227.5,125,140,-147.5,140,220,235,242.5,242.5,610,,
3,McVay Stockwell,M,SBD,MR-T3,74,Raw,2002,,LA,73.1,207.5,225,-230,225,120,132.5,-137.5,132.5,225,245,-255,245,602.5,,
4,Matthew Mora,M,SBD,MR-T3,74,Raw,2002,,TX,72.9,-225,235,-240,235,130,-135,-135,130,235,-242.5,-242.5,235,600,,
5,Charlie Horning,M,SBD,MR-T3,74,Raw,2002,,TN,73.2,200,210,217.5,217.5,142.5,152.5,-157.5,152.5,200,212.5,-222.5,212.5,582.5,,
6,Markos Cash,M,SBD,MR-T3,74,Raw,2002,,WI,69.15,130,142.5,-152.5,142.5,-92.5,97.5,-107.5,97.5,155,185,195,195,435,,
1,Alex Sydor,M,SBD,MR-T3,83,Raw,2002,,NY,82.6,247.5,260,265,265,145,152.5,157.5,157.5,265,280,-295,280,702.5,,
2,Adam Proben,M,SBD,MR-T3,83,Raw,2002,,NC,81.25,235,242.5,-247.5,242.5,137.5,145,152.5,152.5,262.5,275,-280,275,670,,
3,Donavin Spears,M,SBD,MR-T3,83,Raw,2002,,OH,81.55,217.5,232.5,-245,232.5,155,162.5,-175,162.5,255,270,-285,270,665,,
4,Kevin Diaz #2,M,SBD,MR-T3,83,Raw,2003,,FL,82.55,220,235,240,240,142.5,-150,150,150,240,257.5,-282.5,257.5,647.5,,
5,Logan Bjurstrom,M,SBD,MR-T3,83,Raw,2003,,WI,78.95,192.5,202.5,205,205,142.5,-145,-145,142.5,235,245,-255,245,592.5,,
6,Carter Hoffman,M,SBD,MR-T3,83,Raw,2002,Hamlin High School,SD,76.75,197.5,205,-215,205,127.5,135,-137.5,135,205,217.5,227.5,227.5,567.5,,
7,Eoghan Daly,M,SBD,MR-T3,83,Raw,2003,,MA,82.05,157.5,175,-185,175,90,102.5,-110,102.5,200,220,-232.5,220,497.5,,
1,Max Runkle,M,SBD,MR-T3,93,Raw,2001,,OH,91.68,237.5,250,262.5,262.5,160,170,-175,170,-255,260,280,280,712.5,,
2,Zachary Watson,M,SBD,MR-T3,93,Raw,2002,,TX,89.92,227.5,240,252.5,252.5,150,160,-170,160,262.5,277.5,-300,277.5,690,,
3,Benjamin Pendley,M,SBD,MR-T3,93,Raw,2002,,GA,89.46,-250,252.5,260,260,132.5,137.5,-142.5,137.5,257.5,270,-277.5,270,667.5,,
4,Jared Reardon,M,SBD,MR-T3,93,Raw,2002,,NJ,91.86,230,245,-255,245,-140,140,-145,140,250,260,-275,260,645,,
5,Tobias Campbell,M,SBD,MR-T3,93,Raw,2002,,CO,90.9,220,227.5,235,235,140,145,150,150,235,245,-247.5,245,630,,
6,Drew Cargill,M,SBD,MR-T3,93,Raw,2002,,GA,91.4,205,-220,-220,205,150,155,162.5,162.5,240,250,-255,250,617.5,,
7,Peter Sjoberg,M,SBD,MR-T3,93,Raw,2002,,VA,89.8,-195,202.5,212.5,212.5,115,122.5,127.5,127.5,247.5,262.5,272.5,272.5,612.5,,
8,Slade Irvine,M,SBD,MR-T3,93,Raw,2002,,MN,88.88,207.5,215,220,220,142.5,-150,-150,142.5,227.5,245,-255,245,607.5,,
9,Christopher Collins Jr,M,SBD,MR-T3,93,Raw,2002,,OH,92.1,215,-245,-245,215,-97.5,117.5,125,125,160,-162.5,-162.5,160,500,,
1,Sean Mills #1,M,SBD,MR-T3,105,Raw,2001,,PA,104.3,295,307.5,312.5,312.5,180,-185,-185,180,305,320,325.5,325.5,818,,
2,Luke Miles,M,SBD,MR-T3,105,Raw,2003,Team Rebmann,TX,103.55,225,237.5,250,250,137.5,145,150,150,290,305,320,320,720,,
3,Denis Motyko,M,SBD,MR-T3,105,Raw,2002,,OR,102.95,247.5,265,-270,265,160,-170,-170,160,272.5,-300,-300,272.5,697.5,,
4,Tyler Quesinberry,M,SBD,MR-T3,105,Raw,2003,,NC,96.35,235,-247.5,257.5,257.5,-167.5,177.5,-187.5,177.5,245,260,-275,260,695,,
5,Lewis Henneberger,M,SBD,MR-T3,105,Raw,2003,,CA,102.5,227.5,237.5,242.5,242.5,147.5,155,160,160,270,280,-285,280,682.5,,
6,William Spencer #1,M,SBD,MR-T3,105,Raw,2003,,NC,101.9,212.5,222.5,-227.5,222.5,155,157.5,160,160,252.5,267.5,-275,267.5,650,,
7,Carter Trowbridge,M,SBD,MR-T3,105,Raw,2002,Hamlin High School,SD,100.85,235,247.5,-255,247.5,147.5,-157.5,-157.5,147.5,240,250,-255,250,645,,
1,Grant Ivarson,M,SBD,MR-T3,120,Raw,2002,,WI,107.8,285,295,300,300,182.5,190,195,195,300,313,-320.5,313,808,,
2,Tragen Moore,M,SBD,MR-T3,120,Raw,2001,,NC,118.6,290,307.5,-320.5,307.5,155,162.5,170,170,250,267.5,280,280,757.5,,
1,Alessandro Houghton Houghton,M,SBD,MR-T3,120+,Raw,2002,,MA,143.35,265,280,-295,280,190,197.5,-202.5,197.5,270,282.5,292.5,292.5,770,,
1,Canaan Hoosier,M,SBD,M-T1,59,Single-ply,2005,,LA,56.3,-90,97.5,117.5,117.5,70,72.5,-75,72.5,122.5,135,137.5,137.5,327.5,,
1,Logan Gaudreau,M,SBD,M-T1,66,Single-ply,2007,,CO,64.76,-120,120,132.5,132.5,57.5,60,-67.5,60,120,137.5,-145,137.5,330,,
1,Jayson Figueroa,M,SBD,M-T1,74,Single-ply,2006,,TX,70.92,160,175,190,190,95,-107.5,107.5,107.5,160,-175,175,175,472.5,,
1,Daniel Trujillo,M,SBD,M-T1,83,Single-ply,2005,,TX,82.92,185,-212.5,-212.5,185,97.5,107.5,-110,107.5,185,205,-212.5,205,497.5,,
1,John Guidry,M,SBD,M-T1,105,Single-ply,2005,5500 Powerlifting,LA,102,165,182.5,-192.5,182.5,115,125,-130,125,165,-185,-185,165,472.5,,
2,Ty Denges,M,SBD,M-T1,105,Single-ply,2006,,TX,93.9,130,147.5,160,160,72.5,90,95,95,122.5,145,-162.5,145,400,,
1,Keegan Garcia,M,SBD,M-T1,120,Single-ply,2006,,TX,117.65,185,205,215,215,75,-122.5,122.5,122.5,215,237.5,245,245,582.5,,
1,Kevin Poret,M,SBD,M-T1,120+,Single-ply,2005,5500 Powerlifting,LA,146.1,200,212.5,227.5,227.5,137.5,147.5,-160,147.5,175,187.5,200,200,575,,
1,Brayden Bromonsky,M,SBD,M-T2,53,Single-ply,2003,Team Rebmann,TX,52.45,195,-210,220,220,97.5,105,107.5,107.5,202.5,225,238,238,565.5,,
2,Stafford Agee,M,SBD,M-T2,53,Single-ply,2003,5500 Powerlifting,LA,52.25,182.5,200,-212.5,200,107.5,117.5,125,125,200,-220,-227.5,200,525,,
3,Zachary Montz,M,SBD,M-T2,53,Single-ply,2004,,LA,52.55,157.5,170,-177.5,170,77.5,85,90,90,157.5,170,-177.5,170,430,,
1,Justin Figueroa,M,SBD,M-T2,59,Single-ply,2005,,TX,58.25,150,-167.5,170,170,102.5,112.5,115,115,160,177.5,185,185,470,,
1,Joshua Kellum,M,SBD,M-T2,66,Single-ply,2004,,LA,63.75,225,250,,250,-132.5,132.5,-155,132.5,207.5,225,,225,607.5,,
1,Gabe Hoosier,M,SBD,M-T2,83,Single-ply,2004,,LA,81.98,210,-225,-227.5,210,-140,140,142.5,142.5,207.5,-227.5,227.5,227.5,580,,
1,Shelton Jenkins,M,SBD,M-T2,93,Single-ply,2003,,LA,86.82,215,220,-232.5,220,177.5,-187.5,187.5,187.5,220,232.5,237.5,237.5,645,,
2,Caleb Esparza,M,SBD,M-T2,93,Single-ply,2004,Team Rebmann,TX,86.44,240,255,262.5,262.5,117.5,127.5,135,135,-200,200,227.5,227.5,625,,
3,Douglas Ricalde,M,SBD,M-T2,93,Single-ply,2005,,LA,91.14,225,245,250,250,150,-160,-160,150,205,-217.5,222.5,222.5,622.5,,
1,Chandler Loescher,M,SBD,M-T2,105,Single-ply,2004,,LA,101.94,227.5,247.5,-255,247.5,190,205,212.5,212.5,227.5,242.5,250,250,710,,
1,Jace Stewart,M,SBD,M-T2,120,Single-ply,2003,5500 Powerlifting,LA,117.9,257.5,272.5,-285,272.5,170,-182.5,-182.5,170,227.5,247.5,272.5,272.5,715,,
2,Charles Jonau,M,SBD,M-T2,120,Single-ply,2003,,LA,110.22,225,237.5,250,250,130,137.5,145,145,185,200,212.5,212.5,607.5,,
3,Zack Pisciotta,M,SBD,M-T2,120,Single-ply,2003,5500 Powerlifting,LA,112,207.5,225,232.5,232.5,142.5,-150,157.5,157.5,200,217.5,-227.5,217.5,607.5,,
1,Emmanuel Powell,M,SBD,M-T2,120+,Single-ply,2003,Q101 Strength Syndicate,LA,124.26,290,312.5,322.5,322.5,185,200,-210,200,227.5,240,255,255,777.5,,
2,Clayton Malone,M,SBD,M-T2,120+,Single-ply,2003,,LA,135.3,245,262.5,275,275,175,182.5,200,200,200,217.5,-237.5,217.5,692.5,,
1,Nicholas Eaton,M,SBD,M-T3,105,Single-ply,2003,5500 Powerlifting,LA,101.82,237.5,255,267.5,267.5,170,182.5,-187.5,182.5,232.5,252.5,260,260,710,,
2,Nathan Mitchell,M,SBD,M-T3,105,Single-ply,2003,Q101 Strength Syndicate,LA,101.58,210,220,227.5,227.5,120,130,140,140,220,-230,-230,220,587.5,,
1,Derrick Martin,M,SBD,M-T3,120+,Single-ply,2003,5500 Powerlifting,LA,143.76,300,317.5,330,330,200,215,-230,215,227.5,242.5,-255,242.5,787.5,,
2,J'Darius Carter,M,SBD,M-T3,120+,Single-ply,2002,,LA,162.74,-255,275,-295,275,150,162.5,167.5,167.5,227.5,252.5,257.5,257.5,700,,
